agent_builder,apartment_name,area_city,area_in_sq_ft,bhk,details,latitude,longitude,price,status
Aryavart Enterprise,"(None,)",,839,"(None,)",Residential land / Plot in Jahangirpura,,,₹ 55 ,
HELLYS Real Estate Consultant,Rajhans Apple,,"1,150",2 BHK,2 BHK Residential Apartment in Palanpur,,,₹ 39.5 ,
Prabhu Property Services,"(None,)",,900,4 BHK,4 Bedroom Independent House in Jahagrabad,,,₹ 1.25 ,
Siddhi Vinayak Property Consultant,"(None,)",,"2,200",3 BHK,3 BHK Residential Apartment in VIP Road Vesu,,,₹ 1.2 ,
Brick India Realtors,"(None,)",,"2,250",3 BHK,3 BHK Residential Apartment in Citylight Area,,,₹ 1.1 ,
Property World,Kinghood Casa King,,"1,825",3 BHK,3 BHK Residential Apartment in Palanpur,,,₹ 63 ,
Lucky Property,Shreepad Antillia,,"1,995",3 BHK,3 BHK Residential Apartment in PAL,,,₹ 85 ,
Vardhman Estate,"(None,)",,"1,150",2 BHK,2 BHK Residential Apartment in Adajan,,,₹ 40 ,
Vardhman Estate,"(None,)",,750,1 BHK,1 BHK Residential Apartment in Adajan,,,₹ 18 ,
Ridham Real Estate Consultant,Rajhans Belliza,,"1,000",2 BHK,2 BHK Residential Apartment in Dumas,,,₹ 33 ,
Property World,Soham Pride,,"1,265",2 BHK,2 BHK Residential Apartment in PAL,,,₹ 44.2 ,
Shree Ram Estate,"(None,)",,"1,200",2 BHK,2 BHK Residential Apartment in Palanpur,,,₹ 34 ,
The Property Shop,Khushi Krish Heights,,"2,287",3 BHK,3 BHK Residential Apartment in Pal Gam,,,₹ 91.5 ,
Shree Properties,"(None,)",,810,4 BHK,4 Bedroom Independent House in Adajan,,,₹ 1.11 ,
Brick India Realtors,"(None,)",,"3,780",4 BHK,4 BHK Residential Apartment in Vesu,,,₹ 2.1 ,
AAA capital services(p)ltd,"(None,)",,"3,107",3 BHK,3 BHK Independent Builder Floor in Piplod,,,₹ 2.02 ,
Express Realty,Avadh Copper Stone,,"2,980",4 BHK,4 BHK Residential Apartment in Dumas,,,₹ 1.15 ,
Karni Property Consultant,"(None,)",,"1,150",2 BHK,2 BHK Residential Apartment in Godadara,,,Price on Request,
Yash Realtors,Happy Home Excelencia,,"10,780",6 BHK,6 BHK Residential Apartment in Vesu,,,₹ 8.6 ,
Pramukh Eastate,"(None,)",,"1,193",2 BHK,2 BHK Residential Apartment in L P Savani,,,₹ 39 ,
Moga Property,"(None,)",,"1,250",2 BHK,2 BHK Residential Apartment in Pal Gam,,,₹ 52.5 ,
Dream Line Realtors,Rajhans Synfonia,,"1,989",3 BHK,3 BHK Residential Apartment in Vesu,,,₹ 85.7 ,
Karni Property Consultant,"(None,)",,"1,201",2 BHK,2 BHK Residential Apartment in Godadara,,,Price on Request,
Khushi Property,"(None,)",,"1,550",3 BHK,3 BHK Residential Apartment in Palanpur,,,₹ 45 ,
Samor Estate,"(None,)",,"1,600",3 BHK,3 BHK Residential Apartment in Adajan,,,₹ 60 ,
Vikas Property Consultant,Avadh Copper Stone,,"1,930",3 BHK,3 BHK Residential Apartment in Dumas,,,Price on Request,
Fastdeal Properties,Santvan Skyon,,"1,173",2 BHK,2 BHK Residential Apartment in Palanpur,,,₹ 42 ,
Samor Estate,"(None,)",,950,2 BHK,2 BHK Residential Apartment in Adajan,,,₹ 17 ,
Space India Property,SNS Splendid,,"2,412",3 BHK,3 BHK Residential Apartment in Vesu,,,₹ 1.2 ,
Pramukh Eastate,"(None,)",,810,3 BHK,3 BHK Independent Builder Floor in PAL,,,₹ 1.31 ,
Pramukh Eastate,"(None,)",,810,3 BHK,3 BHK Independent Builder Floor in PAL,,,₹ 1.31 ,
Samor Estate,JT Stuti Universal,,"1,650",3 BHK,3 BHK Residential Apartment in PAL,,,₹ 55 ,
Yash Realtors,Yashashvi Bella De Mora,,"6,069",4 BHK,4 BHK Residential Apartment in Vesu,,,₹ 3.9 ,
Vardhman Estate,"(None,)",,"1,500",4 BHK,4 Bedroom Independent House in Adajan,,,₹ 1.2 ,
Radhe Property,Vaishnodevi Sky,,"1,055",2 BHK,2 BHK Residential Apartment in Jahangirpura,,,₹ 26 ,
Ridham Real Estate Consultant,Swagat Rudra Enclave,,"1,865",3 BHK,3 BHK Residential Apartment in Bhimrad,,,₹ 76 ,
Samor Estate,"(None,)",,"2,400",3 BHK,3 BHK Residential Apartment in Adajan,,,₹ 84 ,
"(None,)","(None,)",,"1,601",3 BHK,3 BHK Residential Apartment in Palanpur Canal,,,₹ 52.2 ,
Shree Ram Estate,Shiven Florenza,,"1,770",3 BHK,3 BHK Residential Apartment in Palanpur,,,₹ 63 ,
Shivam Property Consultant,Blu Quince,,"1,422",3 BHK,3 BHK Residential Apartment in PAL,,,₹ 70 ,
Shivam Property Consultant,Hetvi Avenue,,"1,008",2 BHK,2 Bedroom Independent House in Dindoli,,,₹ 36 ,
Karni Property Consultant,"(None,)",,"2,050",3 BHK,3 BHK Residential Apartment in Godadara,,,Price on Request,
Dream Line Realtors,Rajhans Grandezza,,"3,591",4 BHK,4 BHK Residential Apartment in Bharthana,,,Price on Request,
Yash Realtors,Times Luxuria,,"2,143",3 BHK,3 BHK Residential Apartment in Vesu,,,₹ 90 ,
Moga Property,Kinar Heights,,"1,180",2 BHK,2 BHK Residential Apartment in PAL,,,₹ 41.3 ,
Real Work Property,Nova Galaxy,,430,1 BHK,1 BHK Residential Apartment in Palanpur,,,₹ 22.9 ,
Moga Property,"(None,)",,"1,235",2 BHK,2 BHK Residential Apartment in Palanpur,,,₹ 48 ,
Ridham Real Estate Consultant,Pal Residency,,"1,600",3 BHK,3 BHK Residential Apartment in Althan,,,₹ 56 ,
HELLYS Real Estate Consultant,JT Stuti Highland,,"1,650",3 BHK,3 BHK Residential Apartment in Palanpur,,,₹ 52 ,
Moga Property,Kinghood Casa King,,"1,825",3 BHK,3 BHK Residential Apartment in Palanpur,,,₹ 65.7 ,
Vardhman Estate,Santvan Skyon,,"1,173",2 BHK,2 BHK Residential Apartment in Palanpur,,,₹ 43.3 ,
ARCIL,"(None,)",,483,1 BHK,1 BHK Residential Apartment in Bhestan,,,₹ 7.6 ,
Space India Property,"(None,)",,945,3 BHK,3 Bedroom Independent House in Kamrej,,,₹ 71 ,
Disposal Hub,"(None,)",,623,2 BHK,2 BHK Residential Apartment in Kadodara,,,₹ 6.54 ,
Moga Property,"(None,)",,"1,680",3 BHK,3 BHK Residential Apartment in Palanpur,,,₹ 51.2 ,
Moga Property,Happy Home Nakshatra Embassy,,"1,405",2 BHK,2 BHK Residential Apartment in Palanpur,,,₹ 49.8 ,
Moga Property,"(None,)",,"1,170",2 BHK,2 BHK Residential Apartment in Palanpur,,,₹ 43.18 ,
Khush Realtor,Green Paradise,,"1,015",2 BHK,2 BHK Residential Apartment in Jahangirabad,,,₹ 28.5 ,
JMS Property Services,"(None,)",,900,4 BHK,4 Bedroom Independent House in Honey Park Road,,,₹ 1.35 ,
Pritesh Estate,"(None,)",,"2,700","(None,)",Residential land / Plot in Piplod,,,₹ 4.95 ,
D K Properties,"(None,)",,"2,323",3 BHK,3 BHK Residential Apartment in Althan,,,₹ 95.0 ,
D K Properties,"(None,)",,"2,323",3 BHK,3 BHK Residential Apartment in Althan,,,₹ 95.0 ,
Royal Property Consultant,"(None,)",,"1,100",2 BHK,2 BHK Residential Apartment in Palanpur,,,₹ 31 ,
Radhe Property,"(None,)",,"1,175",2 BHK,2 BHK Residential Apartment in PAL,,,₹ 35.5 ,
"(None,)","(None,)",,"1,310",2 BHK,2 BHK Residential Apartment in Pal Gam,,,₹ 47 ,
Space India Property,"(None,)",,"1,137",2 BHK,2 BHK Residential Apartment in Vesu,,,₹ 38.5 ,
Samor Estate,Silicon Luxuria,,"1,980",3 BHK,3 BHK Residential Apartment in Pal Gam,,,Price on Request,
Radhe Property,"(None,)",,"1,221",2 BHK,2 BHK Residential Apartment in PAL,,,Price on Request,
D K Properties,"(None,)",,"1,156",2 BHK,2 BHK Residential Apartment in Piplod,,,₹ 47.3 ,
SOBHA Consultant,"(None,)",,"1,252",2 BHK,2 BHK Residential Apartment in Althan,,,₹ 43.71 ,
Shreeji Property,Sai Apartment,,"1,000",2 BHK,2 BHK Residential Apartment in Citylight Area,,,₹ 32 ,
Moga Property,"(None,)",,"1,995",3 BHK,3 BHK Residential Apartment in Palanpur,,,₹ 71.4 ,
"(None,)","(None,)",,"1,500",2 BHK,2 BHK Residential Apartment in Pal Gam,,,₹ 50 ,
"(None,)","(None,)",,"1,250",2 BHK,2 BHK Independent Builder Floor in Gopipura,,,₹ 27 ,
Express Realty,"(None,)",,"3,550",4 BHK,4 BHK Residential Apartment in Vesu,,,₹ 1.3 ,
"(None,)","(None,)",,985,2 BHK,2 BHK Residential Apartment in Mota Varachha,,,₹ 24.5 ,
"(None,)","(None,)",,"1,600",9 BHK,9 BHK Independent Builder Floor in Parvat Patiya,,,₹ 2.5 ,
Express Realty,"(None,)",,"3,600",4 BHK,4 BHK Residential Apartment in Vesu,,,₹ 1.4 ,
"(None,)","(None,)",,"1,240",1 BHK,1 Bedroom Independent House in Singanpor,,,₹ 35 ,
"(None,)","(None,)",,700,1 BHK,1 BHK Residential Apartment in Surat Navsari Road,,,₹ 19.8 ,
"(None,)","(None,)",,521,1 BHK,1 Bedroom Independent House in Amroli,,,₹ 30 ,
Vishwa Property Consultant,"(None,)",,"2,500",4 BHK,4 Bedroom Independent House in Palanpur,,,₹ 90 ,
Khushi Property,Rajhans Apple,,"1,440",3 BHK,3 BHK Residential Apartment in Palanpur,,,₹ 43 ,
Radha Properties,"(None,)",,"1,175",2 BHK,2 BHK Residential Apartment in Palanpur,,,₹ 36 ,
"(None,)","(None,)",,650,1 BHK,1 BHK Residential Apartment in Katargam,,,₹ 13 ,
"(None,)","(None,)",,750,1 BHK,1 BHK Residential Apartment in Udhana,,,₹ 20 ,
"(None,)","(None,)",,650,1 BHK,1 BHK Independent Builder Floor in Katargam,,,₹ 16 ,
"(None,)","(None,)",,720,2 BHK,2 BHK Independent Builder Floor in Olpad,,,₹ 27 ,
"(None,)","(None,)",,"1,300",1 BHK,1 BHK Residential Apartment in New City Light,,,₹ 38.11 ,
"(None,)","(None,)",,800,3 BHK,3 Bedroom Independent House in Udhna Udhyog Nagar,,,₹ 80 ,
"(None,)","(None,)",,750,2 BHK,2 BHK Independent Builder Floor in Trimak Nagar,,,₹ 21 ,
Royal Property Consultant,"(None,)",,"1,185",2 BHK,2 BHK Residential Apartment in Palanpur,,,₹ 40 ,
Royal Property Consultant,"(None,)",,"1,185",2 BHK,2 BHK Residential Apartment in Palanpur,,,₹ 40 ,
"(None,)","(None,)",,864,2 BHK,2 Bedroom Independent House in Dindoli,,,₹ 25 ,
Goyal Real Estate,"(None,)",,"5,680",5 BHK,5 BHK Residential Apartment in VIP Road Vesu,,,₹ 2.44 ,
D K Properties,Flora Avenue,,"1,260",2 BHK,2 BHK Residential Apartment in PAL,,,₹ 40 ,
Space India Property,"(None,)",,"5,202","(None,)",Residential land / Plot in Piplod,,,₹ 7.2 ,
Moga Property,Vaishnodevi Kingston,,"2,538",3 BHK,3 BHK Residential Apartment in PAL,,,₹ 1.0 ,
"(None,)","(None,)",,750,1 BHK,1 BHK Residential Apartment in Mahavir Nagar,,,₹ 17.5 ,
SOBHA Consultant,"(None,)",,"3,150",4 BHK,4 Bedroom Independent House in Someshwara Enclave,,,₹ 4.2 ,
Dream Line Realtors,Happy Elegance,,"1,209",2 BHK,2 BHK Residential Apartment in Vesu,,,Price on Request,
Fastdeal Properties,"(None,)",,"1,150",2 BHK,2 BHK Residential Apartment in Adajan,,,₹ 31 ,
SAMARTHYA GROUP,Samarthya Serene,,648,2 BHK,2 Bedroom Independent House in Masma,,,Price on Request,
Vishwa Property Consultant,"(None,)",,594,3 BHK,3 BHK Independent Builder Floor in Palanpur Gam,,,₹ 65 ,
Space India Property,Vowel Sumeru Residency,,"1,245",2 BHK,2 BHK Residential Apartment in Vesu,,,₹ 53.5 ,
Samor Estate,"(None,)",,900,3 BHK,3 Bedroom Independent House in Adajan,,,₹ 1.5 ,
"(None,)","(None,)",,"1,550",3 BHK,3 BHK Residential Apartment in Jahangirpura,,,₹ 51 ,
Sunshine Properties,Green City Gold,,"2,759",3 BHK,3 BHK Residential Apartment in PAL,,,₹ 80 ,
D K Properties,Happy Residency,,"2,525",4 BHK,4 BHK Residential Apartment in Vesu,,,₹ 1.1 ,
Vikas Property Consultant,Rameshwaram Devbhoomi,,"2,311",3 BHK,3 BHK Residential Apartment in Vesu,,,Price on Request,
Vikas Property Consultant,Rajgreen Punyabhoomi,,"2,259",3 BHK,3 BHK Residential Apartment in Vesu,,,Price on Request,
Vikas Property Consultant,Sangini Solitaire,,"5,200",5 BHK,5 BHK Residential Apartment in Vesu,,,Price on Request,
Vikas Property Consultant,Happy Home Green Fortune,,"2,190",3 BHK,3 BHK Residential Apartment in Vesu,,,Price on Request,
Vikas Property Consultant,Happy Glorious,,"2,255",3 BHK,3 BHK Residential Apartment in Vesu,,,Price on Request,
Vikas Property Consultant,Rajgreen Punyabhoomi,,"2,819",4 BHK,4 BHK Residential Apartment in Vesu,,,Price on Request,
Vikas Property Consultant,Happy Glorious,,"2,753",4 BHK,4 BHK Residential Apartment in Vesu,,,Price on Request,
Vikas Property Consultant,Milestone 7 Heaven,,"2,724",3 BHK,3 BHK Residential Apartment in Vesu,,,Price on Request,
Vikas Property Consultant,Happy Home Excelencia,,"7,500",5 BHK,5 BHK Residential Apartment in Vesu,,,Price on Request,
Vikas Property Consultant,Aakash Enjoy,,"3,285",4 BHK,4 BHK Residential Apartment in Vesu,,,Price on Request,
Vikas Property Consultant,Rajhans Zion,,"4,750",4 BHK,4 BHK Residential Apartment in Vesu,,,Price on Request,
Vikas Property Consultant,Happy Residency,,"2,151",3 BHK,3 BHK Residential Apartment in Vesu,,,Price on Request,
The Property Shop,Monarch Residency,,"1,767",3 BHK,3 BHK Residential Apartment in Palanpur,,,₹ 62.7 ,
Vikas Property Consultant,Rajhans Zion,,"4,750",4 BHK,4 BHK Residential Apartment in Vesu,,,Price on Request,
Vikas Property Consultant,Rajhans Zion,,"4,750",4 BHK,4 BHK Residential Apartment in Vesu,,,Price on Request,
"(None,)","(None,)",,"1,060",2 BHK,2 BHK Residential Apartment in Dindoli,,,₹ 20 ,
HELLYS Real Estate Consultant,"(None,)",,"1,205",2 BHK,2 BHK Residential Apartment in Pal Gam,,,₹ 38 ,
"(None,)","(None,)",,"1,710",4 BHK,4 Bedroom Independent House in Adajan,,,₹ 2.5 ,
"(None,)","(None,)",,"1,100",3 BHK,3 BHK Residential Apartment in Katargam,,,₹ 30 ,
Gaj Kesri Group,"(None,)",,"4,985",5 BHK,5 BHK Residential Apartment in Vesu,,,₹ 2.24 ,
Express Realty,Rajgreen Punyabhoomi,,"2,259",3 BHK,3 BHK Residential Apartment in Vesu,,,₹ 90.3 ,
Vikas Property Consultant,Sangini Terraza,,"3,600",4 BHK,4 BHK Residential Apartment in Vesu,,,Price on Request,
Vikas Property Consultant,Cellestial Dreams,,"14,000",6 BHK,6 BHK Residential Apartment in Vesu,,,Price on Request,
Vikas Property Consultant,Happy Home Excelencia,,"10,500",6 BHK,6 BHK Residential Apartment in Vesu,,,Price on Request,
"(None,)","(None,)",,650,"(None,)","Residential land / Plot in Priyanka green park, bhestan",,,₹ 22 ,
"(None,)","(None,)",,420,"(None,)",Residential land / Plot in Tadkeshwar,,,₹ 2.8 ,
"(None,)","(None,)",,648,2 BHK,2 BHK Independent Builder Floor in Palsana Kadodara Highway,,,₹ 19 ,
Shreeji Property,"(None,)",,990,3 BHK,3 Bedroom Independent House in Parley Point,,,₹ 1.5 ,
Pritesh Estate,"(None,)",,"1,481",3 BHK,3 BHK Residential Apartment in Piplod,,,₹ 73 ,
Salasar Real Estate,"(None,)",,"33,300","(None,)",Residential land / Plot in Olpad,,,₹ 5.5 ,
Salasar Real Estate,Sangini Vedanta,,"2,350",3 BHK,3 BHK Residential Apartment in Vesu,,,₹ 1.2 ,
Shree Properties,Sumeru Silverleaf,,"1,966",3 BHK,3 BHK Residential Apartment in Adajan,,,₹ 82 ,
Aryavart Enterprise,"(None,)",,"1,991",3 BHK,3 BHK Residential Apartment in Adajan,,,₹ 94.57 ,
Aryavart Enterprise,"(None,)",,"1,891",3 BHK,3 BHK Residential Apartment in Adajan,,,₹ 89.82 ,
Fastdeal Properties,"(None,)",,"1,530",3 BHK,3 BHK Residential Apartment in Palanpur,,,₹ 56 ,
Aryavart Enterprise,"(None,)",,"1,422",3 BHK,3 BHK Residential Apartment in Pal Gam,,,₹ 70 ,
Aryavart Enterprise,"(None,)",,"1,965",3 BHK,3 BHK Residential Apartment in Palanpur,,,₹ 73.7 ,
"(None,)","(None,)",,432,1 BHK,1 Bedroom Independent House in Deladva,,,₹ 27 ,
"(None,)","(None,)",,700,1 BHK,1 BHK Residential Apartment in Amroli,,,₹ 14 ,
"(None,)","(None,)",,"1,300",2 BHK,2 BHK Residential Apartment in Midas Square,,,₹ 43 ,
Express Realty,Rajhans Royalton,,"4,795",4 BHK,4 BHK Residential Apartment in Vesu,,,Price on Request,
Jalyan Property Consultant,"(None,)",,"1,250",3 BHK,3 BHK Residential Apartment in Majura Gate,,,₹ 45 ,
"(None,)","(None,)",,"1,018",2 BHK,2 BHK Residential Apartment in Amroli,,,₹ 24.4 ,
Varsha Property,"(None,)",,"1,305",3 BHK,3 Bedroom Independent House in Adajan,,,₹ 1.3 ,
"(None,)","(None,)",,475,1 BHK,1 BHK Residential Apartment in Kamrej,,,₹ 11.5 ,
"(None,)","(None,)",,475,1 BHK,1 BHK Residential Apartment in Kamrej,,,₹ 11.5 ,
Space India Property,"(None,)",,"2,646",4 BHK,4 BHK Residential Apartment in Althan,,,₹ 1.26 ,
Vikas Property Consultant,Enn Enn Florencce,,"5,855",5 BHK,5 BHK Residential Apartment in Vesu,,,₹ 3 ,
Vikas Property Consultant,Swagat Crystal Palace,,"4,350",4 BHK,4 BHK Residential Apartment in Vesu,,,₹ 1.9 ,
Royal Property Consultant,Rajhans Apple,,"1,150",2 BHK,2 BHK Residential Apartment in Palanpur,,,₹ 32 ,
Satyam Estate Agent,Avadh Copper Stone,,"1,890",3 BHK,3 BHK Residential Apartment in Dumas,,,₹ 60.48 ,
Fastdeal Properties,Mauly Coral Palace,,"1,170",2 BHK,2 BHK Residential Apartment in Palanpur,,,₹ 35 ,
Ambe Property,Ambica Arihant Heights,,"1,162",2 BHK,2 BHK Residential Apartment in Palanpur,,,₹ 35.5 ,
Express Realty,Avantis Ofira Posh,,"5,600",5 BHK,5 BHK Residential Apartment in Vesu,,,₹ 2.6 ,
Express Realty,Aphrodite Avenue 77,,"4,176",4 BHK,4 BHK Residential Apartment in Vesu,,,₹ 1.8 ,
Express Realty,Ascon Surya Green View,,"2,600",3 BHK,3 BHK Residential Apartment in Vesu,,,₹ 1.2 ,
Space India Property,Times Luxuria,,"2,147",3 BHK,3 BHK Residential Apartment in Vesu,,,Price on Request,
Pritesh Estate,Aakash Expressions,,"9,550",5 BHK,5 BHK Residential Apartment in VIP Road Vesu,,,₹ 4.39 ,
HELLYS Real Estate Consultant,"(None,)",,"1,411",3 BHK,3 BHK Residential Apartment in Adajan,,,₹ 40 ,
Express Realty,"(None,)",,"7,200",7 BHK,7 BHK Residential Apartment in Vesu,,,₹ 4.1 ,
Vikas Property Consultant,Happy Home Nest Orchid,,"1,611",3 BHK,3 BHK Residential Apartment in Althan,,,₹ 63 ,
Samor Estate,Rajhans Campus,,"1,600",3 BHK,3 BHK Residential Apartment in PAL,,,₹ 95 ,
Kd Thakkar Property Consultant,Neelkanth Residency,,"1,125",2 BHK,2 BHK Residential Apartment in Palanpur Gam,,,₹ 31 ,
Varsha Property,"(None,)",,"1,215",2 BHK,2 BHK Residential Apartment in Adajan,,,₹ 40 ,
"(None,)","(None,)",,504,"(None,)",Residential property in PAL,,,₹ 57 ,
Royal Property Consultant,Rajhans Platinum Residency,,"1,585",3 BHK,3 BHK Residential Apartment in Palanpur,,,₹ 45 ,
SOBHA Consultant,Raghuvir Symphony,,"1,331",2 BHK,2 BHK Residential Apartment in Althan,,,₹ 65 ,
Fastdeal Properties,JT Stuti Icon,,"1,575",3 BHK,3 BHK Residential Apartment in Palanpur,,,₹ 45 ,
Radhe Property,Happy Home Nakshatra Embassy,,"1,630",3 BHK,3 BHK Residential Apartment in Palanpur,,,₹ 50 ,
Space India Property,Someshwar Rivoli Heights,,"2,140",3 BHK,3 BHK Residential Apartment in Vesu,,,₹ 83.51 ,
Jalyan Property Consultant,"(None,)",,"1,110",2 BHK,2 BHK Residential Apartment in Adajan,,,₹ 35 ,
Space India Property,"(None,)",,"4,483",5 BHK,5 BHK Residential Apartment in Althan,,,₹ 1.79 ,
Samor Estate,Rajhans Campus,,"1,600",3 BHK,3 BHK Residential Apartment in PAL,,,₹ 77 ,
Fastdeal Properties,"(None,)",,"1,738",3 BHK,3 BHK Residential Apartment in Palanpur,,,₹ 50.4 ,
Krishna Properties,Orchid Greens,,"1,227",2 BHK,2 BHK Residential Apartment in Palanpur,,,₹ 39.2 ,
Express Realty,Avadh Copper Stone,,"1,410",2 BHK,2 BHK Residential Apartment in Dumas,,,₹ 46 ,
Express Realty,Avadh Copper Stone,,"1,410",2 BHK,2 BHK Residential Apartment in Dumas,,,₹ 46 ,
Royal Property Consultant,Happy Home Nakshatra Embassy,,"1,246",2 BHK,2 BHK Residential Apartment in Palanpur,,,₹ 45 ,
"(None,)","(None,)",,"2,700",2 BHK,2 BHK Independent Builder Floor in Kosamba R.S,,,₹ 1.3 ,
"(None,)","(None,)",,576,3 BHK,3 Bedroom Independent House in Amroli,,,₹ 55 ,
Pritesh Estate,"(None,)",,"3,000",4 BHK,4 BHK Residential Apartment in Vesu Canal Road,,,₹ 1.38 ,
Pritesh Estate,"(None,)",,"1,210",2 BHK,2 BHK Residential Apartment in Bhimrad,,,₹ 46.6 ,
Shree Properties,"(None,)",,981,4 BHK,4 Bedroom Independent House in Adajan,,,₹ 1.7 ,
"(None,)","(None,)",,758,1 BHK,1 BHK Residential Apartment in Pandesara,,,₹ 17 ,
Sunshine Properties,Omkar Residency,,"1,180",2 BHK,2 BHK Residential Apartment in Palanpur Gam,,,₹ 31 ,
"(None,)","(None,)",,"2,323",3 BHK,3 BHK Residential Apartment in Althan Main Road,,,₹ 1.0 ,
Vikas Property Consultant,SNS Splendid,,"2,412",3 BHK,3 BHK Residential Apartment in Vesu,,,₹ 1.2 ,
"(None,)","(None,)",,400,1 BHK,1 BHK Residential Apartment in Katargam,,,₹ 12 ,
Express Realty,Rajhans Synfonia,,"2,018",3 BHK,3 BHK Residential Apartment in Vesu,,,₹ 87 ,
HELLYS Real Estate Consultant,Orchid Greens,,"1,227",2 BHK,2 BHK Residential Apartment in Palanpur,,,₹ 46 ,
Express Realty,Sangini Vedanta,,"2,350",3 BHK,3 BHK Residential Apartment in Vesu,,,₹ 1.2 ,
Vikas Property Consultant,Aakash Earrth,,"1,740",3 BHK,3 BHK Residential Apartment in Bhimrad,,,Price on Request,
Vikas Property Consultant,White Wings Bellacasaa,,"2,252",3 BHK,3 BHK Residential Apartment in Bhimrad,,,Price on Request,
Vikas Property Consultant,Aakash Echo Point,,"1,310",2 BHK,2 BHK Residential Apartment in Bhimrad,,,₹ 42 ,
Express Realty,Times Luxuria,,"3,200",4 BHK,4 BHK Residential Apartment in Vesu,,,₹ 1.55 ,
Radhe Property,"(None,)",,"1,760",3 BHK,3 BHK Residential Apartment in Palanpur,,,₹ 62 ,
JMS Property Services,Bhavyaraj Orchid Fantasia,,"1,250",2 BHK,2 BHK Residential Apartment in Palanpur,,,₹ 38.12 ,
Fastdeal Properties,Happy Home Nakshatra Solitaire,,"1,518",3 BHK,3 BHK Residential Apartment in Palanpur,,,₹ 55 ,
Fastdeal Properties,Rajhans Apple,,"1,440",3 BHK,3 BHK Residential Apartment in Palanpur,,,₹ 50 ,
Fastdeal Properties,Rajhans Orange,,"1,600",3 BHK,3 BHK Residential Apartment in Palanpur,,,₹ 52 ,
"(None,)","(None,)",,"1,200",2 BHK,2 BHK Residential Apartment in Palanpur,,,₹ 45 ,
"(None,)","(None,)",,753,4 BHK,4 BHK Independent Builder Floor in Katargam,,,₹ 36 ,
Vikas Property Consultant,Roongta The Laurels,,"3,321",4 BHK,4 BHK Residential Apartment in Vesu,,,₹ 2 ,
Sunshine Properties,"(None,)",,"1,161",2 BHK,2 BHK Residential Apartment in Palanpur,,,₹ 33 ,
Krishna Properties,Shreepad Panorama,,"1,299",2 BHK,2 BHK Residential Apartment in Palanpur,,,₹ 47.51 ,
Saiom Estate Agency,Happy Home Nakshatra Solitaire,,"1,203",2 BHK,2 BHK Residential Apartment in Palanpur,,,₹ 42 ,
"(None,)","(None,)",,"1,011",2 BHK,2 BHK Residential Apartment in Katargam,,,₹ 28.5 ,
"(None,)","(None,)",,"1,011",2 BHK,2 BHK Residential Apartment in Katargam,,,₹ 28.5 ,
"(None,)","(None,)",,550,1 BHK,1 BHK Residential Apartment in Ashwini kumar road,,,₹ 15 ,
"(None,)","(None,)",,878,3 BHK,3 Bedroom Independent House in UGAT,,,₹ 90 ,
Vikas Property Consultant,"(None,)",,"1,209",3 BHK,3 BHK Residential Apartment in Althan,,,Price on Request,
Royal Property Consultant,Rajhans Campus,,"1,250",2 BHK,2 BHK Residential Apartment in PAL,,,₹ 65 ,
Ridham Real Estate Consultant,"(None,)",,"1,190",2 BHK,2 BHK Residential Apartment in Bhimrad,,,₹ 40 ,
Vardhman Estate,"(None,)",,774,2 BHK,2 Bedroom Independent House in New Rander Road,,,₹ 75 ,
Vardhman Realty,Ambica Arihant Heights,,"1,162",2 BHK,2 BHK Residential Apartment in Palanpur,,,₹ 33.51 ,
"(None,)","(None,)",,918,2 BHK,2 Bedroom Independent House in Karamala,,,₹ 25 ,
"(None,)","(None,)",,"1,780",3 BHK,3 BHK Residential Apartment in Mota Varachha,,,₹ 55 ,
"(None,)","(None,)",,700,1 BHK,1 BHK Independent Builder Floor in Sagrampura,,,₹ 7 ,
"(None,)","(None,)",,"1,306",3 BHK,3 BHK Residential Apartment in antroli surat bardoli highwat,,,₹ 33 ,
Express Realty,Prestige Oliva Heights,,"1,829",3 BHK,3 BHK Residential Apartment in Althan,,,Price on Request,
"(None,)","(None,)",,"1,500",5 BHK,5 Bedroom Independent House in Palsana,,,₹ 1.03 ,
SOBHA Consultant,"(None,)",,"1,500",4 BHK,4 BHK Residential Apartment in Bhatar,,,₹ 45 ,
Lucky Property,Rajhans Stadium Residency,,"1,760",3 BHK,3 BHK Residential Apartment in Palanpur,,,₹ 55 ,
Ambe Property,Sumeru Golden Leaf,,"2,056",3 BHK,3 BHK Residential Apartment in PAL,,,₹ 82.7 ,
HELLYS Real Estate Consultant,Vaishnodevi Kingston,,"3,006",4 BHK,4 BHK Residential Apartment in PAL,,,₹ 1.2 ,
Saanvi Group,Someshwar Rivoli Heights,,"2,140",3 BHK,3 BHK Residential Apartment in Vesu,,,₹ 96.3 ,
"(None,)","(None,)",,"1,350",2 BHK,2 BHK Residential Apartment in Katargam,,,₹ 50 ,
Vardhman Estate,"(None,)",,864,4 BHK,4 Bedroom Independent House in Adajan,,,₹ 1.3 ,
D K Properties,"(None,)",,"1,215",2 BHK,2 BHK Residential Apartment in Althan,,,₹ 50 ,
India Property Estate,"(None,)",,"1,650",3 BHK,3 BHK Residential Apartment in vesu location,,,₹ 70 ,
Orchid Homes,"(None,)",,"1,810",3 BHK,3 BHK Residential Apartment in PAL,,,₹ 67.5 ,
Orchid Homes,"(None,)",,"1,782",3 BHK,3 BHK Residential Apartment in PAL,,,₹ 67.3 ,
D K Properties,"(None,)",,"1,347",3 BHK,3 BHK Residential Apartment in PAL,,,₹ 46.51 ,
Orchid Homes,"(None,)",,"1,285",2 BHK,2 BHK Residential Apartment in PAL,,,₹ 46.9 ,
Orchid Homes,"(None,)",,"1,300",2 BHK,2 BHK Residential Apartment in PAL,,,₹ 47 ,
"(None,)",Shaligram Kinaro,,"1,249",3 BHK,3 BHK Residential Apartment in Singanpor,,,₹ 89 ,
Express Realty,Milestone Palacio,,"4,624",4 BHK,4 BHK Residential Apartment in Citylight Area,,,₹ 2.4 ,
Orchid Homes,"(None,)",,"1,782",3 BHK,3 BHK Residential Apartment in Palanpur,,,₹ 67.1 ,
Orchid Homes,"(None,)",,"1,782",3 BHK,3 BHK Residential Apartment in Palanpur,,,₹ 67.1 ,
