agent_builder,apartment_name,area_city,area_in_sq_ft,bhk,details,latitude,longitude,price,status
SATYA SANKALP BUILDCON LLP (BUILDER), Swaminarayan Green City,Khadsad Surat,1205 ,2 ,"(None,)",21.25894356,72.94462585,3374000 ,Under Construction
Chandni (AGENT),"(None,)",Limbayat Surat,558 ,2 ,"(None,)",21.17524147,72.86220551,586000 ,Ready to move
Nexxen solutions pvt ltd (AGENT),"(None,)",Kamrej 1 Surat,1680 ,2 ,"(None,)",21.26375771,72.96237946,2650000 ,Ready to move
SATYA SANKALP BUILDCON LLP (BUILDER), Swaminarayan Green City,Khadsad Surat,1005 ,2 ,"(None,)",21.25894356,72.94462585,2814000 ,Under Construction
Chandni (AGENT),"(None,)",Limbayat Surat,623 ,2 ,"(None,)",21.17524147,72.86389923,654000 ,Ready to move
SATYA SANKALP BUILDCON LLP (BUILDER), Swaminarayan Green City,Khadsad Surat,1105 ,2 ,"(None,)",21.25894356,72.94462585,3094000 ,Under Construction
Pramukh Estate (AGENT),"(None,)",Pal Surat,1335 ,2 ,"(None,)",21.19207191,72.77603912,5100000 ,Ready to move
Chandni (AGENT),"(None,)",Athwa Surat,1508 ,3 ,"(None,)",21.17067337,72.79373932,4300000 ,Ready to move
Disha Properties (AGENT),"(None,)",Palanpur Canal Road Surat,1265 ,2 ,"(None,)",21.21137238,72.77624512,3690000 ,Under Construction
Geeta Real Estate Surat (AGENT),"(None,)",Palanpur Surat,1300 ,2 ,"(None,)",21.21226501,72.77759552,4700000 ,Under Construction
Desai Real Estate Constaltant (AGENT),"(None,)",Palanpur Surat,1705 ,3 ,"(None,)",21.21226501,72.77759552,6054455 ,Under Construction
JAINAM PROPERTY (AGENT),Green Green City Gold,Pal Gam Surat,2759 ,3 ,"(None,)",21.18916512,72.76644897,11000011 ,Under Construction
Surat Realestate (AGENT),"(None,)",Dindoli Kharvasa Road Surat,1368 ,3 ,"(None,)",21.14056396,72.88384247,5860000 ,Under Construction
Universal Property (AGENT),Rajhans Apple,Palanpur Surat,1150 ,2 ,"(None,)",21.20872688,72.77295685,3700000 ,Ready to move
Stonewall Properties (AGENT),"(None,)",VIP Road Vesu Surat,2885 ,3 ,"(None,)",21.1390419,72.76863861,14000000 ,Ready to move
shree vardani eye property consult (AGENT),"(None,)",Pal Gam Surat,1422 ,3 ,"(None,)",21.18563461,72.78186798,7000000 ,Ready to move
DREAM HOME PROPERTIES (AGENT),Creative Anand Avenue,Palanpur Surat,1250 ,2 ,"(None,)",21.2216568,72.78271484,3500000 ,Under Construction
EXPRESS REALTY (AGENT),"(None,)",Vesu Main Road Surat,2380 ,3 ,"(None,)",21.14583206,72.77292633,13500000 ,Ready to move
HELLYS Real Estate Consultant (AGENT),"(None,)",Pal Surat,1714 ,3 ,"(None,)",21.19207191,72.77603912,5700000 ,Ready to move
Saanvi Group (AGENT),Avadh Copper Stone,Dumas Surat,1410 ,2 ,"(None,)",21.1205101,72.71809387,4600000 ,Under Construction
SATYA SANKALP BUILDCON LLP (BUILDER), Swaminarayan Green City,Khadsad Surat,1205 ,2 ,"(None,)",21.25894356,72.94462585,3374000 ,Under Construction
Chandni (AGENT),"(None,)",Limbayat Surat,558 ,2 ,"(None,)",21.17524147,72.86220551,586000 ,Ready to move
Nexxen solutions pvt ltd (AGENT),"(None,)",Kamrej 1 Surat,1680 ,2 ,"(None,)",21.26375771,72.96237946,2650000 ,Ready to move
SATYA SANKALP BUILDCON LLP (BUILDER), Swaminarayan Green City,Khadsad Surat,1005 ,2 ,"(None,)",21.25894356,72.94462585,2814000 ,Under Construction
Chandni (AGENT),"(None,)",Limbayat Surat,623 ,2 ,"(None,)",21.17524147,72.86389923,654000 ,Ready to move
SATYA SANKALP BUILDCON LLP (BUILDER), Swaminarayan Green City,Khadsad Surat,1105 ,2 ,"(None,)",21.25894356,72.94462585,3094000 ,Under Construction
Pramukh Estate (AGENT),"(None,)",Pal Surat,1335 ,2 ,"(None,)",21.19207191,72.77603912,5100000 ,Ready to move
Chandni (AGENT),"(None,)",Athwa Surat,1508 ,3 ,"(None,)",21.17067337,72.79373932,4300000 ,Ready to move
Disha Properties (AGENT),"(None,)",Palanpur Canal Road Surat,1265 ,2 ,"(None,)",21.21137238,72.77624512,3690000 ,Under Construction
Geeta Real Estate Surat (AGENT),"(None,)",Palanpur Surat,1300 ,2 ,"(None,)",21.21226501,72.77759552,4700000 ,Under Construction
Desai Real Estate Constaltant (AGENT),"(None,)",Palanpur Surat,1705 ,3 ,"(None,)",21.21226501,72.77759552,6054455 ,Under Construction
JAINAM PROPERTY (AGENT),Green Green City Gold,Pal Gam Surat,2759 ,3 ,"(None,)",21.18916512,72.76644897,11000011 ,Under Construction
Surat Realestate (AGENT),"(None,)",Dindoli Kharvasa Road Surat,1368 ,3 ,"(None,)",21.14056396,72.88384247,5860000 ,Under Construction
Universal Property (AGENT),Rajhans Apple,Palanpur Surat,1150 ,2 ,"(None,)",21.20872688,72.77295685,3700000 ,Ready to move
Stonewall Properties (AGENT),"(None,)",VIP Road Vesu Surat,2885 ,3 ,"(None,)",21.1390419,72.76863861,14000000 ,Ready to move
shree vardani eye property consult (AGENT),"(None,)",Pal Gam Surat,1422 ,3 ,"(None,)",21.18563461,72.78186798,7000000 ,Ready to move
DREAM HOME PROPERTIES (AGENT),Creative Anand Avenue,Palanpur Surat,1250 ,2 ,"(None,)",21.2216568,72.78271484,3500000 ,Under Construction
EXPRESS REALTY (AGENT),"(None,)",Vesu Main Road Surat,2380 ,3 ,"(None,)",21.14583206,72.77292633,13500000 ,Ready to move
HELLYS Real Estate Consultant (AGENT),"(None,)",Pal Surat,1714 ,3 ,"(None,)",21.19207191,72.77603912,5700000 ,Ready to move
Saanvi Group (AGENT),Avadh Copper Stone,Dumas Surat,1410 ,2 ,"(None,)",21.1205101,72.71809387,4600000 ,Under Construction
Balaji Properties (AGENT),"(None,)",Citylight Area Surat,900 ,2 ,"(None,)",21.16397858,72.79481506,3800000 ,Ready to move
Dastan Property (AGENT), Janki Residency,Jahangirabad Surat,920 ,2 ,"(None,)",21.21805382,72.78028107,3100000 ,Ready to move
JSN Consultancy (AGENT),Yashasvi Siddhi Ellipse,Althan Surat,2100 ,3 ,"(None,)",21.13234329,72.80466461,8500000 ,Ready to move
parth kansagra (BUILDER),"(None,)",Kamrej Road Surat,1753 ,3 ,"(None,)",21.26918983,72.9571991,5300000 ,Ready to move
Sameerbhai (OWNER),"(None,)",Pal Surat,1906 ,3 ,"(None,)",21.19207191,72.77603912,7433000 ,Ready to move
harshdeep realtors (AGENT),Rajhans Elita,Pal Gam Surat,3175 ,4 ,"(None,)",21.18392181,72.78556824,16251000 ,Ready to move
Disha Properties (AGENT),"(None,)",Adajan Surat,1620 ,3 ,"(None,)",21.19572449,72.7875824,4624900 ,Under Construction
PROPERTY PLANET (BUILDER),"(None,)",Dindoli Kharvasa Road Surat,1000 ,2 ,"(None,)",21.14056396,72.88384247,2350000 ,Under Construction
YOU REAL E-STATES CONSULTANCY (AGENT),"(None,)",Dindoli Surat,984 ,2 ,"(None,)",21.15127563,72.87439728,3251000 ,Under Construction
Geeta Real Estate Surat (AGENT),"(None,)",Bhatha Gam Surat,1270 ,2 ,"(None,)",21.18556023,72.7633667,5100000 ,Under Construction
Pramukh Estate (AGENT),"(None,)",Palanpur Jakatnaka Surat,1100 ,2 ,"(None,)",21.20952606,72.78385162,3600000 ,Ready to move
new Project booking (BUILDER),"(None,)",Olpad Surat,1008 ,3 ,"(None,)",21.33589363,72.7501297,1400000 ,Under Construction
Shaun Leo (OWNER),"(None,)",Vesu Surat,1850 ,3 ,"(None,)",21.00035095,72.86087036,8100000 ,Ready to move
harshdeep realtors (AGENT),Rajhans Synfonia,Abhva Surat,1360 ,2 ,"(None,)",21.12509918,72.77722168,5862000 ,Under Construction
Desai Real Estate Constaltant (AGENT),Creative Anand Avenue,Palanpur Surat,1650 ,3 ,"(None,)",21.2216568,72.78271484,4785000 ,Under Construction
Chandni (AGENT),"(None,)",Kamrej 1 Surat,586 ,2 ,"(None,)",21.26535606,72.95911407,1500000 ,Ready to move
Rikil Hajariwala (OWNER),Happy Home Nakshatra Solitaire,Palanpur Surat,2346 ,3 ,"(None,)",21.21207237,72.77664948,9000000 ,Ready to move
Dipen shah (OWNER),"(None,)",Tadwadi Surat,1000 ,2 ,"(None,)",21.20740128,72.79818726,2970000 ,Ready to move
nirav (OWNER),"(None,)",Nanpura Surat,1590 ,3 ,"(None,)",21.1892395,72.81639099,7000000 ,Ready to move
Stonewall Properties (AGENT),"(None,)",Althan Surat,2600 ,3 ,"(None,)",21.14689064,72.80265045,14000000 ,Under Construction
JAINAM PROPERTY (AGENT),"(None,)",Palanpur Surat,1845 ,3 ,"(None,)",21.21226501,72.77759552,6565656 ,Under Construction
rj realstate plot Industrial NA plot (AGENT),"(None,)",Orma School Road Surat,610 ,1 ,"(None,)",21.31494331,72.72634125,1251000 ,Under Construction
DREAM HOME PROPERTIES (AGENT),"(None,)",Jahangirabad Surat,1750 ,3 ,"(None,)",21.21642685,72.78211975,5689250 ,Under Construction
Jayesh (OWNER),"(None,)",Jahangirabad Surat,1075 ,2 ,"(None,)",21.21642685,72.78211975,3300000 ,Ready to move
Bhavin Shah (OWNER),"(None,)",Anand Mahal Road Surat,700 ,1 ,"(None,)",21.20089149,72.79170227,2400000 ,Ready to move
shree vardani eye property consult (AGENT),Harihar Suryam Horizon,Pal Gam Surat,2081 ,3 ,"(None,)",21.1941433,72.77410126,10100000 ,Under Construction
HELLYS Real Estate Consultant (AGENT),Soham Pride,Palanpur Surat,1223 ,2 ,"(None,)",21.20085716,72.7647171,4500000 ,Under Construction
jignesh (OWNER),"(None,)",Kamrej Road Surat,1094 ,2 ,"(None,)",21.26918983,72.9571991,2000000 ,Ready to move
Pintu Jain (OWNER),Vaishnodevi Kingston,Pal Gam Surat,2538 ,3 ,"(None,)",21.18841362,72.76631165,11500000 ,Ready to move
Om Sai Home (AGENT),"(None,)",City Light Road Surat,2400 ,3 ,"(None,)",21.16671753,72.79551697,22100000 ,Ready to move
Om Sai Home (AGENT),"(None,)",Parvat Patiya Surat,1000 ,2 ,"(None,)",21.19021225,72.86531067,3350000 ,Ready to move
GTP construction (BUILDER),"(None,)",Jahangirpura Surat,4000 ,4 ,"(None,)",21.02508736,72.79579163,17500000 ,Under Construction
Ravi Shekhda (OWNER),"(None,)",Kadodara Surat,800 ,2 ,"(None,)",21.17142105,72.95916748,900000 ,Ready to move
Dastan Property (AGENT),"(None,)",Palanpur Surat,698 ,1 ,"(None,)",21.21226501,72.77759552,2200000 ,Ready to move
rj realstate plot Industrial NA plot (AGENT),"(None,)",Olpad Sayan Road Surat,900 ,2 ,"(None,)",21.32754707,72.82426453,2850000 ,Under Construction
Pramukh Estate (AGENT),Happy Home Nakshatra Solitaire,Palanpur Surat,2346 ,3 ,"(None,)",21.21207237,72.77664948,7800000 ,Ready to move
Disha Properties (AGENT),"(None,)",Adajan Surat,1715 ,3 ,"(None,)",21.19572449,72.7875824,4977900 ,Under Construction
PROPERTY PLANET (BUILDER),"(None,)",Dindoli Kharvasa Road Surat,1100 ,2 ,"(None,)",21.14056396,72.88384247,2255000 ,Ready to move
new Project booking (BUILDER),"(None,)",Jahangirabad Surat,679 ,1 ,"(None,)",21.21642685,72.78211975,1867000 ,Under Construction
Desai Real Estate Constaltant (AGENT),Mandot Sumeru Silverleaf,Pal Gam Surat,1966 ,3 ,"(None,)",21.1983223,72.77305603,8200000 ,Ready to move
Surat Realestate (AGENT),"(None,)",Dindoli Kharvasa Road Surat,912 ,2 ,"(None,)",21.14056396,72.88384247,2700000 ,Under Construction
Stonewall Properties (AGENT),"(None,)",Vesu Surat,2260 ,3 ,"(None,)",21.00035095,72.86087036,9743000 ,Under Construction
Balaji Properties (AGENT),"(None,)",Althan Surat,1277 ,2 ,"(None,)",21.14689064,72.80265045,4850000 ,Under Construction
JAINAM PROPERTY (AGENT), The Pursuit of Happiness,Pal Gam Surat,2815 ,4 ,"(None,)",21.19836044,72.77420044,12100121 ,Under Construction
Dastan Property (AGENT),"(None,)",Palanpur Surat,1227 ,2 ,"(None,)",21.21226501,72.77759552,5100000 ,Ready to move
HELLYS Real Estate Consultant (AGENT),Hari Sahajanand Hills,Palanpur Surat,1195 ,2 ,"(None,)",21.20540047,72.77412415,4300000 ,Ready to move
EXPRESS REALTY (AGENT),Rajhans Synfonia,Abhva Surat,2260 ,3 ,"(None,)",21.00035095,72.86087036,9750000 ,Under Construction
jignesh (OWNER),"(None,)",Jolva Patiya Road Surat,432 ,2 ,"(None,)",21.16872597,73.00141907,1200000 ,Ready to move
Balaji Properties (AGENT),"(None,)",Parle point Surat,4600 ,4 ,"(None,)",21.17432022,72.79460907,37500000 ,Under Construction
EXPRESS REALTY (AGENT),"(None,)",Piplod Surat,6923 ,5 ,"(None,)",21.1575222,72.77547455,55384000 ,Under Construction
DREAM HOME PROPERTIES (AGENT),Creative Anand Avenue,Palanpur Surat,1650 ,3 ,"(None,)",21.2216568,72.78271484,4785000 ,Under Construction
Geeta Real Estate Surat (AGENT),"(None,)",Jahangirpura Surat,810 ,Residential Plot,"(None,)",21.02508736,72.79579163,6700000 ,New
Nazera Inamdar (OWNER),"(None,)",Bardoli Surat,5400 ,5 ,"(None,)",21.12574959,73.11211395,50000000 ,Ready to move
Chandni (AGENT),"(None,)",Limbayat Surat,455 ,1 ,"(None,)",21.17551041,72.86347198,1046500 ,Ready to move
Ravi Shekhda (OWNER),"(None,)",Surat Bardoli Road Surat,800 ,2 ,"(None,)",21.17416954,72.95558167,900000 ,Ready to move
PROPERTY PLANET (BUILDER),"(None,)",Dindoli Kharvasa Road Surat,1019 ,2 ,"(None,)",21.14056396,72.88384247,2140000 ,Under Construction
Sanjay Panchal (OWNER),"(None,)",Vesu Surat,2025 ,4 ,"(None,)",21.00035095,72.86087036,25000000 ,Ready to move
rj realstate plot Industrial NA plot (AGENT),"(None,)",Orma School Road Surat,720 ,2 ,"(None,)",21.31494331,72.72634125,2051000 ,Under Construction
new Project booking (BUILDER),"(None,)",Olpad Sayan Road Surat,750 ,2 ,"(None,)",21.32754707,72.82426453,1199000 ,Under Construction
harshdeep realtors (AGENT),Rajhans Grandezza,Vesu Surat,3591 ,4 ,"(None,)",21.15042686,72.7935257,22590981 ,Under Construction
Pramukh Estate (AGENT),"(None,)",Pal Surat,1200 ,2 ,"(None,)",21.19207191,72.77603912,3850000 ,Ready to move
Disha Properties (AGENT),"(None,)",Adajan Surat,1250 ,2 ,"(None,)",21.19572449,72.7875824,3549800 ,Under Construction
harshdeep realtors (AGENT),"(None,)",Pal Surat,2287 ,3 ,"(None,)",21.19207191,72.77603912,10600000 ,Ready to move
Desai Real Estate Constaltant (AGENT),Glad Manidhari Luxuria,Pal Gam Surat,2960 ,4 ,"(None,)",21.18614006,72.77735901,13470960 ,Ready to move
jignesh (OWNER),"(None,)",Kadodra Char Rasta Surat,561 ,1 ,"(None,)",21.16002464,72.96242523,821000 ,Ready to move
shree vardani eye property consult (AGENT),"(None,)",Pal Surat,3208 ,4 ,"(None,)",21.19207191,72.77603912,18927200 ,Ready to move
Balaji Properties (AGENT),Happy Home Nandini,Vesu Surat,1650 ,3 ,"(None,)",21.13575745,72.77168274,6500000 ,Ready to move
JAINAM PROPERTY (AGENT),"(None,)",Palanpur Surat,1845 ,3 ,"(None,)",21.21226501,72.77759552,6551000 ,Under Construction
HELLYS Real Estate Consultant (AGENT),Digja Infrastructure LLP Shiv Digja,Palanpur Surat,1251 ,2 ,"(None,)",21.20090103,72.76411438,4351000 ,Under Construction
Surat Realestate (AGENT),"(None,)",Dindoli Kharvasa Road Surat,830 ,2 ,"(None,)",21.14056396,72.88384247,1690000 ,Ready to move
EXPRESS REALTY (AGENT),"(None,)",Vesu Surat,2550 ,4 ,"(None,)",21.00035095,72.86087036,12700000 ,Ready to move
Stonewall Properties (AGENT),"(None,)",VIP Road Surat,2350 ,3 ,"(None,)",21.14193535,72.7984314,12000000 ,Under Construction
PROPERTY PLANET (BUILDER),"(None,)",Dindoli Surat,912 ,2 ,"(None,)",21.15127563,72.87439728,3475000 ,Under Construction
Geeta Real Estate Surat (AGENT),"(None,)",Palanpur Surat,1445 ,3 ,"(None,)",21.21226501,72.77759552,5500000 ,Under Construction
rj realstate plot Industrial NA plot (AGENT),"(None,)",Olpad Sayan Road Surat,1900 ,5 ,"(None,)",21.32754707,72.82426453,3851000 ,Under Construction
new Project booking (BUILDER),Mangalam Enterprise Murlee Lake City,Olpad Surat,900 ,2 ,"(None,)",21.3268261,72.75331879,2651000 ,Ready to move
Surat Realestate (AGENT),"(None,)",Dindoli Kharvasa Road Surat,1175 ,3 ,"(None,)",21.14056396,72.88384247,2251000 ,Ready to move
Disha Properties (AGENT),"(None,)",Adajan Surat,1650 ,3 ,"(None,)",21.19572449,72.7875824,4788600 ,Under Construction
Pramukh Estate (AGENT),Green Green City Gold,Pal Gam Surat,1916 ,3 ,"(None,)",21.18916512,72.76644897,5800000 ,Ready to move
Pramukh Estate (AGENT),Happy Home Nakshatra View,Pal Gam Surat,1612 ,3 ,"(None,)",21.21178818,72.77457428,6000000 ,Ready to move
Disha Properties (AGENT),"(None,)",Adajan Surat,1125 ,2 ,"(None,)",21.19572449,72.7875824,3400000 ,Ready to move
Pramukh Estate (AGENT),Happy Home Nakshatra Solitaire,Palanpur Surat,1203 ,2 ,"(None,)",21.21207237,72.77664948,4700000 ,Ready to move
Disha Properties (AGENT),"(None,)",Adajan Surat,1275 ,2 ,"(None,)",21.19572449,72.7875824,3607000 ,Under Construction
Disha Properties (AGENT),"(None,)",Adajan Surat,1610 ,3 ,"(None,)",21.19572449,72.7875824,4608000 ,Under Construction
Pramukh Estate (AGENT),Vaishnodevi Blue Bells,Jahangirpura Surat,2295 ,4 ,"(None,)",21.24121666,72.77554321,8500000 ,Ready to move
Disha Properties (AGENT),"(None,)",Adajan Surat,1650 ,3 ,"(None,)",21.19572449,72.7875824,4819000 ,Under Construction
Disha Properties (AGENT),"(None,)",Palanpur Surat,1620 ,3 ,"(None,)",21.21226501,72.77759552,4619700 ,Under Construction
Disha Properties (AGENT),Happy Home Nakshatra Nebula,Palanpur Surat,1609 ,3 ,"(None,)",21.22995567,72.79173279,4600000 ,Ready to move
Disha Properties (AGENT),"(None,)",Adajan Surat,1215 ,2 ,"(None,)",21.19572449,72.7875824,3424700 ,Under Construction
Pramukh Estate (AGENT),"(None,)",Pal Surat,1600 ,3 ,"(None,)",21.19207191,72.77603912,5250000 ,Ready to move
Disha Properties (AGENT),"(None,)",Adajan Surat,1125 ,2 ,"(None,)",21.19572449,72.7875824,3405000 ,Ready to move
Pramukh Estate (AGENT),"(None,)",Palanpur Surat,1185 ,2 ,"(None,)",21.21226501,72.77759552,4351000 ,Ready to move
Disha Properties (AGENT),"(None,)",Adajan Surat,1673 ,3 ,"(None,)",21.19572449,72.7875824,5827500 ,Ready to move
Disha Properties (AGENT),Happy Home Nakshatra Nebula,Palanpur Surat,1609 ,3 ,"(None,)",21.22995567,72.79173279,4763500 ,Ready to move
Disha Properties (AGENT),"(None,)",Adajan Surat,1715 ,3 ,"(None,)",21.19572449,72.7875824,5023000 ,Under Construction
Disha Properties (AGENT),"(None,)",Adajan Surat,1215 ,2 ,"(None,)",21.19572449,72.7875824,3419400 ,Under Construction
Pramukh Estate (AGENT),"(None,)",Pal Gam Surat,1224 ,2 ,"(None,)",21.18563461,72.78186798,5251000 ,Ready to move
Disha Properties (AGENT),"(None,)",Adajan Surat,1250 ,2 ,"(None,)",21.19572449,72.7875824,3515800 ,Under Construction
Disha Properties (AGENT),"(None,)",Adajan Surat,1715 ,3 ,"(None,)",21.19572449,72.7875824,4998000 ,Under Construction
Disha Properties (AGENT),"(None,)",Adajan Surat,1620 ,3 ,"(None,)",21.19572449,72.7875824,4645000 ,Under Construction
Disha Properties (AGENT),"(None,)",Adajan Surat,1125 ,2 ,"(None,)",21.19572449,72.7875824,3467000 ,Ready to move
Pramukh Estate (AGENT),"(None,)",Pal Gam Surat,1251 ,2 ,"(None,)",21.18563461,72.78186798,4151000 ,Under Construction
Disha Properties (AGENT),"(None,)",Palanpur Surat,1610 ,3 ,"(None,)",21.21226501,72.77759552,4590700 ,Under Construction
Pramukh Estate (AGENT),"(None,)",Vanakala Surat,1100 ,2 ,"(None,)",21.2405529,72.76829529,2900000 ,Ready to move
Disha Properties (AGENT),Happy Home Nakshatra Nebula,Palanpur Surat,1609 ,3 ,"(None,)",21.22995567,72.79173279,4650000 ,Ready to move
Disha Properties (AGENT),"(None,)",Palanpur Surat,1650 ,3 ,"(None,)",21.21226501,72.77759552,4787000 ,Under Construction
Pramukh Estate (AGENT),Rajhans Apple,Palanpur Surat,1480 ,3 ,"(None,)",21.20872688,72.77295685,5500000 ,Ready to move
Disha Properties (AGENT),"(None,)",Adajan Surat,1125 ,2 ,"(None,)",21.19572449,72.7875824,3428000 ,Ready to move
harshdeep realtors (AGENT),Silicon Luxuria,Pal Gam Surat,1980 ,3 ,"(None,)",21.18512154,72.78089142,9900000 ,Ready to move
Disha Properties (AGENT),"(None,)",Adajan Surat,1620 ,3 ,"(None,)",21.19572449,72.7875824,4623000 ,Under Construction
Disha Properties (AGENT),"(None,)",Adajan Surat,1215 ,2 ,"(None,)",21.19572449,72.7875824,3431000 ,Under Construction
Pramukh Estate (AGENT),"(None,)",Pal Surat,1575 ,3 ,"(None,)",21.19207191,72.77603912,7500000 ,Ready to move
Disha Properties (AGENT),"(None,)",Adajan Surat,1681 ,3 ,"(None,)",21.19572449,72.7875824,5806000 ,Ready to move
harshdeep realtors (AGENT),"(None,)",Pal Surat,2260 ,3 ,"(None,)",21.19207191,72.77603912,8500000 ,Ready to move
Disha Properties (AGENT),Happy Home Nakshatra Nebula,Palanpur Surat,1609 ,3 ,"(None,)",21.22995567,72.79173279,4667100 ,Ready to move
PROPERTY PLANET (BUILDER),"(None,)",Dindoli Kharvasa Road Surat,912 ,2 ,"(None,)",21.14056396,72.88384247,3475000 ,Under Construction
Disha Properties (AGENT),"(None,)",Adajan Surat,1700 ,3 ,"(None,)",21.19572449,72.7875824,5051000 ,Under Construction
Pramukh Estate (AGENT),Sangini Gardenia,Palanpur Surat,1240 ,2 ,"(None,)",21.2268734,72.78334808,3400000 ,Ready to move
Disha Properties (AGENT),"(None,)",Adajan Surat,1275 ,2 ,"(None,)",21.19572449,72.7875824,3628000 ,Under Construction
Disha Properties (AGENT),"(None,)",Adajan Surat,1215 ,2 ,"(None,)",21.19572449,72.7875824,3431000 ,Under Construction
Disha Properties (AGENT),"(None,)",Adajan Surat,1125 ,2 ,"(None,)",21.19572449,72.7875824,3445000 ,Ready to move
Pramukh Estate (AGENT),"(None,)",Pal Gam Surat,1224 ,2 ,"(None,)",21.18563461,72.78186798,5200000 ,Ready to move
Disha Properties (AGENT),"(None,)",Adajan Surat,1680 ,3 ,"(None,)",21.19572449,72.7875824,5826500 ,Ready to move
Disha Properties (AGENT),"(None,)",Adajan Surat,1650 ,3 ,"(None,)",21.19572449,72.7875824,4787000 ,Under Construction
PROPERTY PLANET (BUILDER),"(None,)",Dindoli Kharvasa Road Surat,1760 ,3 ,"(None,)",21.14056396,72.88384247,6551000 ,Under Construction
Disha Properties (AGENT),"(None,)",Adajan Surat,1715 ,3 ,"(None,)",21.19572449,72.7875824,4981000 ,Under Construction
Disha Properties (AGENT),Happy Home Nakshatra Nebula,Palanpur Surat,1609 ,3 ,"(None,)",21.22995567,72.79173279,4731000 ,Ready to move
Disha Properties (AGENT),"(None,)",Adajan Surat,1215 ,2 ,"(None,)",21.19572449,72.7875824,3418000 ,Under Construction
Disha Properties (AGENT),"(None,)",Adajan Surat,1225 ,2 ,"(None,)",21.19572449,72.7875824,3600000 ,Under Construction
Disha Properties (AGENT),Happy Home Nakshatra Nebula,Palanpur Surat,1609 ,3 ,"(None,)",21.22995567,72.79173279,4731600 ,Ready to move
Disha Properties (AGENT),"(None,)",Adajan Surat,1125 ,2 ,"(None,)",21.19572449,72.7875824,3414500 ,Ready to move
Pramukh Estate (AGENT),Vaishnodevi Blue Bells,Jahangirpura Surat,2295 ,4 ,"(None,)",21.24121666,72.77554321,6351000 ,Ready to move
Disha Properties (AGENT),"(None,)",Adajan Surat,1125 ,2 ,"(None,)",21.19572449,72.7875824,3423000 ,Ready to move
Disha Properties (AGENT),"(None,)",Adajan Surat,1650 ,3 ,"(None,)",21.19572449,72.7875824,4791000 ,Under Construction
Disha Properties (AGENT),"(None,)",Adajan Surat,1620 ,3 ,"(None,)",21.19572449,72.7875824,4628000 ,Under Construction
PROPERTY PLANET (BUILDER),"(None,)",Dindoli Kharvasa Road Surat,1019 ,2 ,"(None,)",21.14056396,72.88384247,2140000 ,Under Construction
Pramukh Estate (AGENT),"(None,)",Palanpur Surat,1785 ,3 ,"(None,)",21.21226501,72.77759552,6589000 ,Under Construction
Disha Properties (AGENT),"(None,)",Adajan Surat,1275 ,2 ,"(None,)",21.19572449,72.7875824,3611000 ,Under Construction
Disha Properties (AGENT),"(None,)",Adajan Surat,1250 ,2 ,"(None,)",21.19572449,72.7875824,3541000 ,Under Construction
Disha Properties (AGENT),"(None,)",Adajan Surat,1225 ,2 ,"(None,)",21.19572449,72.7875824,3552500 ,Under Construction
Disha Properties (AGENT),"(None,)",Adajan Surat,1225 ,2 ,"(None,)",21.19572449,72.7875824,3561000 ,Under Construction
Pramukh Estate (AGENT),"(None,)",Hariom Nagar SocietyAdajan Gam Surat,3000 ,5 ,"(None,)",21.19309235,72.78987885,17000000 ,Ready to move
Pramukh Estate (AGENT),Sangini Gardenia,Palanpur Surat,1240 ,2 ,"(None,)",21.2268734,72.78334808,3900000 ,Ready to move
PROPERTY PLANET (BUILDER),"(None,)",Dindoli Kharvasa Road Surat,1433 ,3 ,"(None,)",21.14056396,72.88384247,3245000 ,Under Construction
Pramukh Estate (AGENT),"(None,)",Pal Gam Surat,1251 ,2 ,"(None,)",21.18563461,72.78186798,5800000 ,Under Construction
harshdeep realtors (AGENT),"(None,)",Pal Gam Surat,1250 ,2 ,"(None,)",21.18563461,72.78186798,5500001 ,Ready to move
Disha Properties (AGENT),"(None,)",Adajan Surat,1715 ,3 ,"(None,)",21.19572449,72.7875824,5032000 ,Under Construction
Disha Properties (AGENT),"(None,)",Palanpur Surat,1620 ,3 ,"(None,)",21.21226501,72.77759552,4626000 ,Under Construction
Disha Properties (AGENT),"(None,)",Adajan Surat,1609 ,3 ,"(None,)",21.19572449,72.7875824,4700000 ,Ready to move
Disha Properties (AGENT),Happy Home Nakshatra Nebula,Palanpur Surat,1609 ,3 ,"(None,)",21.22995567,72.79173279,4751000 ,Ready to move
Disha Properties (AGENT),"(None,)",Adajan Surat,1250 ,2 ,"(None,)",21.19572449,72.7875824,3547000 ,Under Construction
Disha Properties (AGENT),"(None,)",Palanpur Surat,1275 ,2 ,"(None,)",21.21226501,72.77759552,3616700 ,Under Construction
PROPERTY PLANET (BUILDER),"(None,)",Dindoli Kharvasa Road Surat,912 ,2 ,"(None,)",21.14056396,72.88384247,3250000 ,Under Construction
Pramukh Estate (AGENT),"(None,)",Adajan Surat,1750 ,3 ,"(None,)",21.19572449,72.7875824,6500000 ,Ready to move
harshdeep realtors (AGENT),Madhusudan Mahaveer Greens,Adajan Surat,2335 ,3 ,"(None,)",21.19022751,72.77893066,11800000 ,Under Construction
Disha Properties (AGENT),"(None,)",Adajan Surat,1660 ,3 ,"(None,)",21.19572449,72.7875824,4844000 ,Under Construction
Pramukh Estate (AGENT),"(None,)",Pal Surat,810 ,3 ,"(None,)",21.19207191,72.77603912,13500000 ,Ready to move
Pramukh Estate (AGENT),"(None,)",Jahangirabad Surat,1075 ,2 ,"(None,)",21.21642685,72.78211975,3195000 ,Ready to move
Pramukh Estate (AGENT),Happy Home Nakshatra Solitaire,Palanpur Surat,2346 ,3 ,"(None,)",21.21207237,72.77664948,7800000 ,Ready to move
JAINAM PROPERTY (AGENT),Green Green City Gold,Pal Gam Surat,2810 ,3 ,"(None,)",21.18916512,72.76644897,11110011 ,Under Construction
Pramukh Estate (AGENT),"(None,)",Adajan Surat,1530 ,5 ,"(None,)",21.19572449,72.7875824,18200000 ,Ready to move
PROPERTY PLANET (BUILDER),"(None,)",Dindoli Kharvasa Road Surat,1368 ,3 ,"(None,)",21.14056396,72.88384247,5860000 ,Under Construction
PROPERTY PLANET (BUILDER),"(None,)",Dindoli Kharvasa Road Surat,960 ,2 ,"(None,)",21.14056396,72.88384247,3450000 ,Under Construction
PROPERTY PLANET (BUILDER),"(None,)",Dindoli Kharvasa Road Surat,712 ,1 ,"(None,)",21.14056396,72.88384247,1637000 ,Ready to move
Disha Properties (AGENT),"(None,)",Adajan Surat,1680 ,3 ,"(None,)",21.19572449,72.7875824,5856000 ,Ready to move
PROPERTY PLANET (BUILDER),"(None,)",Dindoli Kharvasa Road Surat,1001 ,2 ,"(None,)",21.14056396,72.88384247,2453000 ,Ready to move
Balaji Properties (AGENT),"(None,)",New city light Surat,1500 ,3 ,"(None,)",21.15356445,72.80132294,8500000 ,Ready to move
Disha Properties (AGENT),Happy Home Nakshatra Nebula,Palanpur Surat,1738 ,3 ,"(None,)",21.22995567,72.79173279,5040000 ,Ready to move
harshdeep realtors (AGENT),Rajhans Synfonia,Abhva Surat,1389 ,2 ,"(None,)",21.00035095,72.86087036,5987000 ,Under Construction
harshdeep realtors (AGENT),Rajhans Grandezza,Vesu Surat,3950 ,4 ,"(None,)",21.15042686,72.7935257,24849450 ,Under Construction
Balaji Properties (AGENT),"(None,)",VIP Road Surat,3550 ,4 ,"(None,)",21.1390419,72.76863861,14000000 ,Ready to move
Balaji Properties (AGENT),"(None,)",Vesu Main Road Surat,4200 ,4 ,"(None,)",21.14583206,72.77292633,17500000 ,Ready to move
Desai Real Estate Constaltant (AGENT),Rajhans Ecobuild Rajhans Gold Residency,Jahangirpura Surat,1800 ,3 ,"(None,)",21.02508736,72.79579163,5311800 ,Under Construction
Pramukh Estate (AGENT),"(None,)",Adajan Surat,1280 ,2 ,"(None,)",21.19572449,72.7875824,3500000 ,Ready to move
PROPERTY PLANET (BUILDER),"(None,)",Dindoli Kharvasa Road Surat,912 ,2 ,"(None,)",21.14056396,72.88384247,3475000 ,Under Construction
Disha Properties (AGENT),"(None,)",Palanpur Surat,1215 ,2 ,"(None,)",21.21226501,72.77759552,3426000 ,Under Construction
Disha Properties (AGENT),"(None,)",Adajan Surat,1285 ,2 ,"(None,)",21.19572449,72.7875824,3616000 ,Under Construction
Disha Properties (AGENT),"(None,)",Adajan Surat,1680 ,3 ,"(None,)",21.19572449,72.7875824,5821000 ,Ready to move
Disha Properties (AGENT),"(None,)",Palanpur Surat,1650 ,3 ,"(None,)",21.21226501,72.77759552,4790000 ,Under Construction
Disha Properties (AGENT),"(None,)",Adajan Surat,1715 ,3 ,"(None,)",21.19572449,72.7875824,4974900 ,Under Construction
Balaji Properties (AGENT),Raghuvir Shyam Luxury,Vesu Surat,3500 ,4 ,"(None,)",21.14657402,72.77507019,17000000 ,Ready to move
Balaji Properties (AGENT),Happy Home Vastu Luxuria,Magdalla Surat,3375 ,4 ,"(None,)",21.14809227,72.75959778,22500000 ,Ready to move
PROPERTY PLANET (BUILDER),"(None,)",Dindoli Kharvasa Road Surat,1332 ,3 ,"(None,)",21.14056396,72.88384247,5700000 ,Under Construction
PROPERTY PLANET (BUILDER),"(None,)",Dindoli Kharvasa Road Surat,864 ,2 ,"(None,)",21.14056396,72.88384247,2351000 ,Under Construction
PROPERTY PLANET (BUILDER),"(None,)",Dindoli Kharvasa Road Surat,912 ,2 ,"(None,)",21.14056396,72.88384247,3350000 ,Under Construction
PROPERTY PLANET (BUILDER),"(None,)",Dindoli Kharvasa Road Surat,1175 ,3 ,"(None,)",21.14056396,72.88384247,2550000 ,Ready to move
Disha Properties (AGENT),"(None,)",Adajan Surat,1675 ,3 ,"(None,)",21.19572449,72.7875824,5900000 ,Ready to move
JAINAM PROPERTY (AGENT),"(None,)",Ugat Surat,1620 ,3 ,"(None,)",21.22091675,72.7795639,4581000 ,Under Construction
PROPERTY PLANET (BUILDER),"(None,)",Dindoli Kharvasa Road Surat,712 ,1 ,"(None,)",21.14056396,72.88384247,1637000 ,Ready to move
Disha Properties (AGENT),"(None,)",Adajan Surat,1660 ,3 ,"(None,)",21.19572449,72.7875824,4846000 ,Under Construction
Disha Properties (AGENT),"(None,)",Palanpur Surat,1185 ,2 ,"(None,)",21.21226501,72.77759552,3400000 ,Under Construction
Disha Properties (AGENT),"(None,)",Adajan Surat,1680 ,3 ,"(None,)",21.19572449,72.7875824,5866000 ,Ready to move
PROPERTY PLANET (BUILDER),"(None,)",Dindoli Kharvasa Road Surat,1886 ,4 ,"(None,)",21.14056396,72.88384247,6900000 ,Ready to move
PROPERTY PLANET (BUILDER),"(None,)",Dindoli Kharvasa Road Surat,936 ,2 ,"(None,)",21.14056396,72.88384247,3351000 ,Ready to move
Disha Properties (AGENT),"(None,)",Palanpur Surat,1620 ,3 ,"(None,)",21.21226501,72.77759552,4635000 ,Under Construction
PROPERTY PLANET (BUILDER),"(None,)",Dindoli Kharvasa Road Surat,1368 ,3 ,"(None,)",21.14056396,72.88384247,5860000 ,Under Construction
Disha Properties (AGENT),"(None,)",Palanpur Surat,1275 ,2 ,"(None,)",21.21226501,72.77759552,3600000 ,Under Construction
Disha Properties (AGENT),Happy Home Nakshatra Nebula,Palanpur Surat,1609 ,3 ,"(None,)",21.22995567,72.79173279,4721000 ,Ready to move
harshdeep realtors (AGENT),"(None,)",Dihen Tena Road Surat,900 ,1 ,"(None,)",21.22823334,72.66910553,2600000 ,Under Construction
Desai Real Estate Constaltant (AGENT),Creative Anand Avenue,Palanpur Surat,1185 ,2 ,"(None,)",21.2216568,72.78271484,3378435 ,Under Construction
Balaji Properties (AGENT),Raghuvir Star Galaxy,Athwa Surat,2885 ,4 ,"(None,)",21.13535881,72.76581573,11000000 ,Ready to move
PROPERTY PLANET (BUILDER),"(None,)",Dindoli Kharvasa Road Surat,960 ,2 ,"(None,)",21.14056396,72.88384247,3450000 ,Under Construction
JAINAM PROPERTY (AGENT),"(None,)",LP Savani Road Surat,2400 ,3 ,"(None,)",21.19455147,72.78633118,12121212 ,Under Construction
Balaji Properties (AGENT),Imperial Blossom,Vesu Surat,4970 ,5 ,"(None,)",21.13185692,72.74721527,22000000 ,Ready to move
PROPERTY PLANET (BUILDER),"(None,)",Dindoli Kharvasa Road Surat,1000 ,2 ,"(None,)",21.14056396,72.88384247,2350000 ,Under Construction
Pramukh Estate (AGENT),"(None,)",Palanpur Surat,1278 ,4 ,"(None,)",21.21226501,72.77759552,13100000 ,Ready to move
Disha Properties (AGENT),"(None,)",Adajan Surat,1609 ,3 ,"(None,)",21.19572449,72.7875824,4737500 ,Ready to move
JAINAM PROPERTY (AGENT),"(None,)",Palanpur Surat,1250 ,2 ,"(None,)",21.21226501,72.77759552,3737373 ,Under Construction
harshdeep realtors (AGENT),Rajhans Synfonia,Abhva Surat,2018 ,3 ,"(None,)",21.00035095,72.86087036,8699000 ,Under Construction
PROPERTY PLANET (BUILDER),"(None,)",Dindoli Kharvasa Road Surat,1142 ,2 ,"(None,)",21.14056396,72.88384247,2590000 ,Under Construction
PROPERTY PLANET (BUILDER),"(None,)",Dindoli Kharvasa Road Surat,912 ,2 ,"(None,)",21.14056396,72.88384247,3250000 ,Under Construction
new Project booking (BUILDER),"(None,)",Olpad Surat,504 ,1 ,"(None,)",21.33589363,72.7501297,999000 ,Under Construction
Balaji Properties (AGENT),Rajhans Synfonia,Abhva Surat,1389 ,2 ,"(None,)",21.12509918,72.77722168,5750000 ,Under Construction
Pramukh Estate (AGENT),"(None,)",Pal Surat,1300 ,2 ,"(None,)",21.19207191,72.77603912,5100000 ,Ready to move
Disha Properties (AGENT),"(None,)",Pal Surat,1680 ,3 ,"(None,)",21.19207191,72.77603912,5881000 ,Ready to move
Disha Properties (AGENT),"(None,)",Adajan Surat,1680 ,3 ,"(None,)",21.19572449,72.7875824,5900000 ,Ready to move
PROPERTY PLANET (BUILDER),"(None,)",Dindoli Kharvasa Road Surat,801 ,1 ,"(None,)",21.14056396,72.88384247,1742175 ,Ready to move
PROPERTY PLANET (BUILDER),"(None,)",Dindoli Kharvasa Road Surat,1190 ,2 ,"(None,)",21.14056396,72.88384247,2588250 ,Ready to move
PROPERTY PLANET (BUILDER),"(None,)",Dindoli Kharvasa Road Surat,912 ,2 ,"(None,)",21.14056396,72.88384247,329000 ,Ready to move
Disha Properties (AGENT),"(None,)",Adajan Surat,1680 ,3 ,"(None,)",21.19572449,72.7875824,5817000 ,Ready to move
PROPERTY PLANET (BUILDER),"(None,)",Dindoli Kharvasa Road Surat,1886 ,4 ,"(None,)",21.14056396,72.88384247,6900000 ,Ready to move
Balaji Properties (AGENT),"(None,)",Vesu Surat,1450 ,2 ,"(None,)",21.00035095,72.86087036,5800000 ,Ready to move
JAINAM PROPERTY (AGENT),"(None,)",Palanpur Surat,1800 ,3 ,"(None,)",21.21226501,72.77759552,6371000 ,Under Construction
harshdeep realtors (AGENT),Siddharth Homes The Majestic,Althan Surat,3900 ,4 ,"(None,)",21.14689064,72.80265045,16000000 ,Under Construction
harshdeep realtors (AGENT),"(None,)",Althan Canal Road Surat,1909 ,3 ,"(None,)",21.12914658,72.79490662,7800000 ,Under Construction
Disha Properties (AGENT),Happy Home Nakshatra Nebula,Palanpur Surat,1609 ,3 ,"(None,)",21.22995567,72.79173279,5800000 ,Ready to move
Disha Properties (AGENT),"(None,)",Adajan Surat,1125 ,2 ,"(None,)",21.19572449,72.7875824,3435000 ,Ready to move
Balaji Properties (AGENT),Mangalam Heights,Vesu Surat,1326 ,2 ,"(None,)",21.1397686,72.76909637,4000000 ,Ready to move
Pramukh Estate (AGENT),Rajhans Apple,Palanpur Surat,1480 ,3 ,"(None,)",21.20872688,72.77295685,4651000 ,Ready to move
JAINAM PROPERTY (AGENT),"(None,)",Palanpur Canal Road Surat,668 ,1 ,"(None,)",21.21137238,72.77624512,1841000 ,Under Construction
harshdeep realtors (AGENT),"(None,)",Pal Surat,2034 ,3 ,"(None,)",21.19207191,72.77603912,9800000 ,Under Construction
PROPERTY PLANET (BUILDER),"(None,)",Dindoli Kharvasa Road Surat,936 ,2 ,"(None,)",21.14056396,72.88384247,3351000 ,Ready to move
Disha Properties (AGENT),Happy Home Nakshatra Nebula,Palanpur Surat,1609 ,3 ,"(None,)",21.22995567,72.79173279,4738200 ,Ready to move
JAINAM PROPERTY (AGENT),"(None,)",Palanpur Surat,1620 ,3 ,"(None,)",21.21226501,72.77759552,4620000 ,Under Construction
EXPRESS REALTY (AGENT),"(None,)",Piplod Surat,5696 ,4 ,"(None,)",21.1575222,72.77547455,45500000 ,Under Construction
PROPERTY PLANET (BUILDER),"(None,)",Dindoli Kharvasa Road Surat,1142 ,2 ,"(None,)",21.14056396,72.88384247,2590000 ,Under Construction
Balaji Properties (AGENT),"(None,)",Piplod Surat,6000 ,6 ,"(None,)",21.1575222,72.77547455,55000000 ,Under Construction
PROPERTY PLANET (BUILDER),"(None,)",Dindoli Kharvasa Road Surat,1190 ,2 ,"(None,)",21.14056396,72.88384247,2588250 ,Ready to move
Disha Properties (AGENT),Happy Home Nakshatra Nebula,Palanpur Surat,1609 ,3 ,"(None,)",21.22995567,72.79173279,4650000 ,Ready to move
Stonewall Properties (AGENT),"(None,)",Bhimrad Surat,1827 ,3 ,"(None,)",21.13400078,72.80020142,7253000 ,Under Construction
harshdeep realtors (AGENT),Rajhans Elita,Pal Gam Surat,3575 ,4 ,"(None,)",21.18392181,72.78556824,31111111 ,Ready to move
Balaji Properties (AGENT),Ravani Fortuna,Althan Surat,2800 ,3 ,"(None,)",21.14006805,72.80495453,11000000 ,Ready to move
PROPERTY PLANET (BUILDER),"(None,)",Dindoli Kharvasa Road Surat,1000 ,2 ,"(None,)",21.14056396,72.88384247,2350000 ,Under Construction
new Project booking (BUILDER),Mangalam Enterprise Murlee Lake City,Olpad Surat,900 ,2 ,"(None,)",21.3268261,72.75331879,2651000 ,Ready to move
JAINAM PROPERTY (AGENT),"(None,)",Palanpur Surat,1800 ,3 ,"(None,)",21.21226501,72.77759552,6363636 ,Under Construction
PROPERTY PLANET (BUILDER),"(None,)",Dindoli Kharvasa Road Surat,1175 ,3 ,"(None,)",21.14056396,72.88384247,2350000 ,Ready to move
Disha Properties (AGENT),Happy Home Nakshatra Nebula,Palanpur Surat,1609 ,3 ,"(None,)",21.22995567,72.79173279,4709000 ,Ready to move
JAINAM PROPERTY (AGENT),Green Green City Gold,Pal Gam Surat,2038 ,3 ,"(None,)",21.18916512,72.76644897,8100000 ,Under Construction
Disha Properties (AGENT),"(None,)",Adajan Surat,2350 ,3 ,"(None,)",21.19572449,72.7875824,7500000 ,Ready to move
JAINAM PROPERTY (AGENT),"(None,)",Jahangir Pura Surat,1609 ,3 ,"(None,)",21.25097275,72.79541779,4750000 ,Ready to move
HELLYS Real Estate Consultant (AGENT),Santvan Skyon,Palanpur Surat,1173 ,2 ,"(None,)",21.21376801,72.77164459,4330000 ,Under Construction
EXPRESS REALTY (AGENT),Sun The Legend,Vesu Surat,3472 ,4 ,"(None,)",21.14219856,72.76576996,21200000 ,Ready to move
Balaji Properties (AGENT),"(None,)",Vesu Surat,1175 ,2 ,"(None,)",21.00035095,72.86087036,4600000 ,Ready to move
Balaji Properties (AGENT),Avadh Carolina,Dumas Surat,1840 ,3 ,"(None,)",21.12514305,72.72033691,5600000 ,Ready to move
Pramukh Estate (AGENT),Sangini Gardenia,Palanpur Surat,1635 ,3 ,"(None,)",21.2268734,72.78334808,5231000 ,Ready to move
Pramukh Estate (AGENT),Happy Home Nakshatra Nebula,Palanpur Surat,1609 ,3 ,"(None,)",21.22995567,72.79173279,5021000 ,Ready to move
Pramukh Estate (AGENT),"(None,)",Palanpur Surat,1721 ,3 ,"(None,)",21.21226501,72.77759552,6455000 ,Under Construction
Disha Properties (AGENT),Happy Home Nakshatra Nebula,Palanpur Surat,1219 ,2 ,"(None,)",21.22995567,72.79173279,4650000 ,Ready to move
Desai Real Estate Constaltant (AGENT),Sat Aria,Bhatha Surat,1665 ,3 ,"(None,)",21.18848419,72.76643372,5151000 ,Ready to move
new Project booking (BUILDER),"(None,)",Jahangirpura Surat,677 ,1 ,"(None,)",21.02508736,72.79579163,1861000 ,Under Construction
HELLYS Real Estate Consultant (AGENT),"(None,)",Palanpur Canal Road Surat,1206 ,2 ,"(None,)",21.21137238,72.77624512,3451000 ,Ready to move
PROPERTY PLANET (BUILDER),"(None,)",Dindoli Kharvasa Road Surat,1568 ,3 ,"(None,)",21.14056396,72.88384247,6171000 ,Under Construction
PROPERTY PLANET (BUILDER),"(None,)",Dindoli Kharvasa Road Surat,960 ,2 ,"(None,)",21.14056396,72.88384247,3450000 ,Under Construction
PROPERTY PLANET (BUILDER),"(None,)",Dindoli Kharvasa Road Surat,912 ,2 ,"(None,)",21.14056396,72.88384247,3475000 ,Under Construction
Pramukh Estate (AGENT),"(None,)",Adajan Surat,1891 ,3 ,"(None,)",21.19572449,72.7875824,8991000 ,Under Construction
HELLYS Real Estate Consultant (AGENT),Kush Crystal Heights,Adajan Surat,1530 ,3 ,"(None,)",21.21180344,72.77039337,6500000 ,Ready to move
HELLYS Real Estate Consultant (AGENT),"(None,)",Palanpur Canal Road Surat,1221 ,2 ,"(None,)",21.21137238,72.77624512,4100000 ,Ready to move
Disha Properties (AGENT),"(None,)",Adajan Surat,1200 ,2 ,"(None,)",21.19572449,72.7875824,4006000 ,Ready to move
HELLYS Real Estate Consultant (AGENT),JT JT Stuti Highland,Adajan Surat,1675 ,3 ,"(None,)",21.19499969,72.81944275,5200000 ,Ready to move
PROPERTY PLANET (BUILDER),"(None,)",Dindoli Kharvasa Road Surat,1460 ,3 ,"(None,)",21.14056396,72.88384247,3650000 ,Ready to move
Disha Properties (AGENT),"(None,)",Palanpur Surat,1650 ,3 ,"(None,)",21.21226501,72.77759552,4796000 ,Under Construction
Disha Properties (AGENT),"(None,)",Adajan Surat,1738 ,3 ,"(None,)",21.19572449,72.7875824,4997800 ,Ready to move
Pramukh Estate (AGENT),Narayan Coral Heights,Palanpur Surat,1242 ,2 ,"(None,)",21.21112633,72.77029419,4800000 ,Ready to move
HELLYS Real Estate Consultant (AGENT),"(None,)",Palanpur Canal Road Surat,1221 ,2 ,"(None,)",21.21137238,72.77624512,3700000 ,Ready to move
EXPRESS REALTY (AGENT),"(None,)",Vesu Surat,5460 ,5 ,"(None,)",21.00035095,72.86087036,35000000 ,Ready to move
EXPRESS REALTY (AGENT),Someshwar Rivoli Heights,Vesu Surat,2140 ,3 ,"(None,)",21.14756966,72.77845764,9500000 ,Ready to move
Pramukh Estate (AGENT),Kush Crystal Heights,Adajan Surat,1235 ,2 ,"(None,)",21.21180344,72.77039337,4200000 ,Ready to move
Disha Properties (AGENT),"(None,)",Palanpur Surat,1215 ,2 ,"(None,)",21.21226501,72.77759552,3415000 ,Under Construction
JAINAM PROPERTY (AGENT),Shiven Florenza,Palanpur Surat,1770 ,3 ,"(None,)",21.21261787,72.76511383,6300000 ,Under Construction
Disha Properties (AGENT),"(None,)",Adajan Surat,1816 ,3 ,"(None,)",21.19572449,72.7875824,7998000 ,Under Construction
HELLYS Real Estate Consultant (AGENT),Sarthak Salaj Homes,Palanpur Surat,1411 ,3 ,"(None,)",21.22040558,72.77734375,4500000 ,Ready to move
Disha Properties (AGENT),"(None,)",Adajan Surat,1620 ,3 ,"(None,)",21.19572449,72.7875824,4619000 ,Under Construction
Disha Properties (AGENT),"(None,)",Palanpur Surat,1620 ,3 ,"(None,)",21.21226501,72.77759552,4645000 ,Under Construction
Disha Properties (AGENT),"(None,)",Palanpur Surat,1285 ,2 ,"(None,)",21.21226501,72.77759552,3650000 ,Under Construction
Disha Properties (AGENT),"(None,)",Palanpur Surat,1650 ,3 ,"(None,)",21.21226501,72.77759552,4787750 ,Under Construction
Surat Realestate (AGENT),"(None,)",Dindoli Kharvasa Road Surat,912 ,2 ,"(None,)",21.14056396,72.88384247,3350000 ,Under Construction
Stonewall Properties (AGENT),"(None,)",Vesu Surat,1989 ,3 ,"(None,)",21.00035095,72.86087036,8575000 ,Under Construction
JAINAM PROPERTY (AGENT),Green Green City Gold,Pal Gam Surat,2150 ,3 ,"(None,)",21.18916512,72.76644897,8400084 ,Under Construction
JAINAM PROPERTY (AGENT),Green Green City Gold,Pal Gam Surat,2064 ,3 ,"(None,)",21.18916512,72.76644897,8100081 ,Under Construction
Disha Properties (AGENT),"(None,)",Adajan Surat,1660 ,3 ,"(None,)",21.19572449,72.7875824,4749000 ,Under Construction
Disha Properties (AGENT),"(None,)",Palanpur Surat,1250 ,2 ,"(None,)",21.21226501,72.77759552,3521000 ,Under Construction
Balaji Properties (AGENT),Om Darshan,Vesu Surat,2650 ,3 ,"(None,)",21.15111351,72.78968811,12500000 ,Ready to move
EXPRESS REALTY (AGENT),Avadh Carolina,Dumas Surat,1840 ,3 ,"(None,)",21.12514305,72.72033691,8200000 ,Ready to move
Disha Properties (AGENT),"(None,)",Adajan Surat,1275 ,2 ,"(None,)",21.19572449,72.7875824,3580300 ,Under Construction
Disha Properties (AGENT),"(None,)",Adajan Surat,1215 ,2 ,"(None,)",21.19572449,72.7875824,3436000 ,Under Construction
Disha Properties (AGENT),"(None,)",Palanpur Surat,1150 ,2 ,"(None,)",21.21226501,72.77759552,3438000 ,Ready to move
PROPERTY PLANET (BUILDER),"(None,)",Dindoli Kharvasa Road Surat,1190 ,2 ,"(None,)",21.14056396,72.88384247,2588250 ,Ready to move
Balaji Properties (AGENT),Ecohomes Gardens,Vesu Surat,3195 ,4 ,"(None,)",21.14824486,72.78639984,16000000 ,Under Construction
JAINAM PROPERTY (AGENT),"(None,)",Adajan Surat,1084 ,2 ,"(None,)",21.19572449,72.7875824,3200000 ,Ready to move
JAINAM PROPERTY (AGENT),"(None,)",Adajan Surat,2021 ,3 ,"(None,)",21.19572449,72.7875824,9100000 ,Ready to move
PROPERTY PLANET (BUILDER),"(None,)",Dindoli Kharvasa Road Surat,1886 ,4 ,"(None,)",21.14056396,72.88384247,6900000 ,Ready to move
Stonewall Properties (AGENT),"(None,)",Althan Canal Road Surat,1227 ,2 ,"(None,)",21.12914658,72.79490662,4234000 ,Under Construction
Aashutosh real estate (AGENT),"(None,)",Dindoli Surat,1019 ,2 ,"(None,)",21.15127563,72.87439728,2140000 ,Under Construction
harshdeep realtors (AGENT),Avadh Carolina,Dumas Surat,1840 ,3 ,"(None,)",21.12514305,72.72033691,6400001 ,Ready to move
Balaji Properties (AGENT),Happy Elegance,Vesu Surat,1650 ,3 ,"(None,)",21.13054657,72.76613617,6000000 ,Ready to move
Disha Properties (AGENT),"(None,)",Adajan Surat,1609 ,3 ,"(None,)",21.19572449,72.7875824,4774000 ,Ready to move
Om Sai Home (AGENT),"(None,)",Parvat Patiya Surat,1180 ,2 ,"(None,)",21.19021225,72.86531067,3650000 ,Ready to move
EXPRESS REALTY (AGENT),"(None,)",Vesu Surat,3550 ,4 ,"(None,)",21.00035095,72.86087036,16500000 ,Ready to move
Universal Property (AGENT),"(None,)",Pal Surat,1956 ,3 ,"(None,)",21.19207191,72.77603912,9600000 ,Under Construction
Disha Properties (AGENT),"(None,)",Adajan Surat,1620 ,3 ,"(None,)",21.19572449,72.7875824,4662000 ,Under Construction
Disha Properties (AGENT),"(None,)",Adajan Surat,1275 ,2 ,"(None,)",21.19572449,72.7875824,3591000 ,Under Construction
PROPERTY PLANET (BUILDER),"(None,)",Dindoli Kharvasa Road Surat,960 ,2 ,"(None,)",21.14056396,72.88384247,3450000 ,Under Construction
JAINAM PROPERTY (AGENT),Universal Bilvam Regency,Palanpur Surat,1955 ,3 ,"(None,)",21.21256256,72.77487946,7200000 ,Under Construction
JAINAM PROPERTY (AGENT),Bhavyaraj Orchid Fantasia,Palanpur Surat,1690 ,3 ,"(None,)",21.21636772,72.78118896,5151000 ,Under Construction
JAINAM PROPERTY (AGENT),"(None,)",Palanpur Surat,1800 ,3 ,"(None,)",21.21226501,72.77759552,6400000 ,Under Construction
JAINAM PROPERTY (AGENT),Shiven Florenza,Palanpur Surat,1770 ,3 ,"(None,)",21.21261787,72.76511383,6350000 ,Under Construction
Geeta Real Estate Surat (AGENT),"(None,)",Pal Surat,2200 ,3 ,"(None,)",21.19207191,72.77603912,9400000 ,Under Construction
Geeta Real Estate Surat (AGENT),"(None,)",Jahangirpura Surat,1416 ,2 ,"(None,)",21.02508736,72.79579163,4545000 ,Under Construction
Disha Properties (AGENT),"(None,)",Adajan Surat,2450 ,3 ,"(None,)",21.19572449,72.7875824,6500000 ,Ready to move
Disha Properties (AGENT),"(None,)",Adajan Surat,1609 ,3 ,"(None,)",21.19572449,72.7875824,4585650 ,Ready to move
Aashutosh real estate (AGENT),"(None,)",Dindoli Surat,1150 ,3 ,"(None,)",21.15127563,72.87439728,5700000 ,Under Construction
Aashutosh real estate (AGENT),"(None,)",Dindoli Kharvasa Road Surat,1750 ,3 ,"(None,)",21.14056396,72.88384247,6551000 ,Under Construction
Disha Properties (AGENT),Happy Home Nakshatra Nebula,Palanpur Surat,1609 ,3 ,"(None,)",21.22995567,72.79173279,4588000 ,Ready to move
Disha Properties (AGENT),"(None,)",Adajan Surat,1650 ,3 ,"(None,)",21.19572449,72.7875824,4811000 ,Under Construction
Surat Realestate (AGENT),"(None,)",Dindoli Kharvasa Road Surat,912 ,2 ,"(None,)",21.14056396,72.88384247,3475000 ,Under Construction
YOU REAL E-STATES CONSULTANCY (AGENT),"(None,)",Dindoli Surat,912 ,2 ,"(None,)",21.15127563,72.87439728,2625000 ,Under Construction
Pramukh Estate (AGENT),Happy Home Nakshatra View,Pal Gam Surat,1612 ,3 ,"(None,)",21.21178818,72.77457428,4800000 ,Ready to move
EXPRESS REALTY (AGENT),Happy Home Happy Glorious Phase 2,Vesu Surat,2255 ,3 ,"(None,)",21.14083481,72.76282501,10000000 ,Ready to move
Aashutosh real estate (AGENT),"(None,)",Dindoli Surat,960 ,2 ,"(None,)",21.15127563,72.87439728,3450000 ,Under Construction
Disha Properties (AGENT),"(None,)",Adajan Surat,1285 ,2 ,"(None,)",21.19572449,72.7875824,3900000 ,Ready to move
Disha Properties (AGENT),"(None,)",Adajan Surat,1610 ,3 ,"(None,)",21.19572449,72.7875824,4590000 ,Under Construction
Disha Properties (AGENT),"(None,)",Palanpur Surat,1125 ,2 ,"(None,)",21.21226501,72.77759552,3456000 ,Ready to move
Satish Chauhan (OWNER),"(None,)",Honey Park Road Surat,630 ,1 ,"(None,)",21.20593452,72.78463745,3200000 ,Ready to move
HELLYS Real Estate Consultant (AGENT),Devshree Benito,Jahangirpura Surat,1250 ,2 ,"(None,)",21.23767281,72.78043365,3688000 ,Under Construction
Disha Properties (AGENT),"(None,)",Palanpur Surat,1125 ,2 ,"(None,)",21.21226501,72.77759552,3475000 ,Ready to move
Disha Properties (AGENT),"(None,)",Adajan Surat,1200 ,2 ,"(None,)",21.19572449,72.7875824,4000000 ,Ready to move
JAINAM PROPERTY (AGENT),"(None,)",Adajan Surat,2460 ,3 ,"(None,)",21.19572449,72.7875824,12800000 ,Ready to move
Disha Properties (AGENT),"(None,)",Palanpur Surat,1125 ,2 ,"(None,)",21.21226501,72.77759552,3442000 ,Ready to move
Disha Properties (AGENT),"(None,)",Adajan Surat,1150 ,2 ,"(None,)",21.19572449,72.7875824,3498000 ,Ready to move
Dastan Property (AGENT),Rajhans Platinum Residency,Palanpur Surat,1170 ,2 ,"(None,)",21.21378326,72.77384949,3800000 ,Ready to move
JAINAM PROPERTY (AGENT),"(None,)",Palanpur Surat,1690 ,3 ,"(None,)",21.21226501,72.77759552,5151515 ,Under Construction
HELLYS Real Estate Consultant (AGENT),Divine Desire,Palanpur Surat,1450 ,3 ,"(None,)",21.21333313,72.77163696,5200000 ,Under Construction
Disha Properties (AGENT),"(None,)",Palanpur Surat,1152 ,2 ,"(None,)",21.21226501,72.77759552,3200000 ,Under Construction
Disha Properties (AGENT),"(None,)",Palanpur Surat,1620 ,3 ,"(None,)",21.21226501,72.77759552,4641000 ,Under Construction
Diip Dabhi (OWNER),Raghuvir Symphony,Althan Surat,1331 ,2 ,"(None,)",21.14047813,72.8033905,7650000 ,Ready to move
Disha Properties (AGENT),"(None,)",Adajan Surat,1715 ,3 ,"(None,)",21.19572449,72.7875824,4991000 ,Under Construction
Disha Properties (AGENT),"(None,)",Pal Surat,1200 ,2 ,"(None,)",21.19207191,72.77603912,4000000 ,Ready to move
Disha Properties (AGENT),Happy Home Nakshatra Nebula,Palanpur Surat,1609 ,3 ,"(None,)",21.22995567,72.79173279,4649000 ,Ready to move
Aashutosh real estate (AGENT),"(None,)",Dindoli Kharvasa Road Surat,1000 ,2 ,"(None,)",21.14056396,72.88384247,3477000 ,Ready to move
Disha Properties (AGENT),"(None,)",Palanpur Surat,1660 ,3 ,"(None,)",21.21226501,72.77759552,4852000 ,Under Construction
new Project booking (BUILDER),"(None,)",Olpad Surat,900 ,2 ,"(None,)",21.33589363,72.7501297,2751000 ,Ready to move
EXPRESS REALTY (AGENT),"(None,)",Vesu Surat,3785 ,4 ,"(None,)",21.00035095,72.86087036,22700000 ,Under Construction
Disha Properties (AGENT),"(None,)",Adajan Surat,1215 ,2 ,"(None,)",21.19572449,72.7875824,3435000 ,Under Construction
PROPERTY PLANET (BUILDER),"(None,)",Dindoli Kharvasa Road Surat,1433 ,3 ,"(None,)",21.14056396,72.88384247,3245000 ,Under Construction
PROPERTY PLANET (BUILDER),"(None,)",Dindoli Kharvasa Road Surat,912 ,2 ,"(None,)",21.14056396,72.88384247,3250000 ,Under Construction
Geeta Real Estate Surat (AGENT),"(None,)",Palanpur Canal Road Surat,700 ,1 ,"(None,)",21.21137238,72.77624512,2500000 ,Ready to move
Disha Properties (AGENT),"(None,)",Palanpur Surat,1250 ,2 ,"(None,)",21.21226501,72.77759552,3514500 ,Under Construction
PROPERTY PLANET (BUILDER),"(None,)",Dindoli Kharvasa Road Surat,712 ,1 ,"(None,)",21.14056396,72.88384247,1637000 ,Ready to move
PROPERTY PLANET (BUILDER),"(None,)",Dindoli Kharvasa Road Surat,912 ,2 ,"(None,)",21.14056396,72.88384247,3290000 ,Ready to move
Disha Properties (AGENT),"(None,)",Adajan Surat,1125 ,2 ,"(None,)",21.19572449,72.7875824,3523100 ,Ready to move
Disha Properties (AGENT),Happy Home Nakshatra Nebula,Palanpur Surat,1738 ,3 ,"(None,)",21.22995567,72.79173279,4996500 ,Ready to move
HELLYS Real Estate Consultant (AGENT),"(None,)",Hazira Adajan Road Surat,1675 ,3 ,"(None,)",21.18894386,72.79543304,6450425 ,Under Construction
HELLYS Real Estate Consultant (AGENT),Universal Bilvam Regency,Palanpur Surat,1955 ,3 ,"(None,)",21.21256256,72.77487946,7251000 ,Under Construction
Aashutosh real estate (AGENT),"(None,)",Dindoli Surat,735 ,2 ,"(None,)",21.15127563,72.87439728,1590000 ,Under Construction
Pramukh Estate (AGENT),Happy Home Nakshatra Nebula,Palanpur Surat,1219 ,2 ,"(None,)",21.22995567,72.79173279,4500000 ,Ready to move
Disha Properties (AGENT),"(None,)",Palanpur Surat,1245 ,2 ,"(None,)",21.21226501,72.77759552,4254000 ,Ready to move
Universal Property (AGENT),"(None,)",Palanpur Surat,1750 ,3 ,"(None,)",21.21226501,72.77759552,6600000 ,Ready to move
tithal (OWNER),"(None,)",Bardoli Surat,1034 ,3 ,"(None,)",21.12574959,73.11211395,4000000 ,Ready to move
DREAM HOME PROPERTIES (AGENT),Devshree Benito,Jahangirpura Surat,1253 ,2 ,"(None,)",21.23767281,72.78043365,3633700 ,Under Construction
Disha Properties (AGENT),"(None,)",Adajan Surat,1125 ,2 ,"(None,)",21.19572449,72.7875824,3471000 ,Ready to move
first choice property (AGENT), Sumeru Residency,Vesu Surat,1250 ,2 ,"(None,)",21.14325905,72.76717377,5200000 ,Ready to move
Desai Real Estate Constaltant (AGENT),Devshree Benito,Jahangirpura Surat,1280 ,2 ,"(None,)",21.23767281,72.78043365,3840000 ,Under Construction
Universal Property (AGENT),"(None,)",Pal Surat,1200 ,2 ,"(None,)",21.19207191,72.77603912,3900000 ,Ready to move
Pramukh Estate (AGENT),"(None,)",LP Savani Road Surat,1285 ,2 ,"(None,)",21.19455147,72.78633118,4200000 ,Ready to move
Universal Property (AGENT),Santvan Kreon,Palanpur Surat,1721 ,3 ,"(None,)",21.2105751,72.7720871,6551000 ,Under Construction
PROPERTY PLANET (BUILDER),"(None,)",Dindoli Surat,912 ,2 ,"(None,)",21.15127563,72.87439728,3475000 ,Under Construction
Disha Properties (AGENT),Happy Home Nakshatra Nebula,Palanpur Surat,1609 ,3 ,"(None,)",21.22995567,72.79173279,4691000 ,Ready to move
Aashutosh real estate (AGENT),"(None,)",Devadh Gam Niyol Road Surat,1000 ,2 ,"(None,)",21.17081451,72.89453125,2351000 ,Ready to move
Saanvi Group (AGENT),Raghuvir Symphony,Althan Surat,1331 ,2 ,"(None,)",21.14047813,72.8033905,7000000 ,Ready to move
PROPERTY PLANET (BUILDER),"(None,)",Dindoli Surat,965 ,2 ,"(None,)",21.15127563,72.87439728,2190000 ,Under Construction
Pramukh Estate (AGENT),Happy Home Nakshatra Heights,Adajan Surat,1458 ,3 ,"(None,)",21.19929695,72.76908875,4700000 ,Ready to move
Pramukh Estate (AGENT), Janki Residency,Jahangirabad Surat,900 ,2 ,"(None,)",21.21805382,72.78028107,3000000 ,Under Construction
Aashutosh real estate (AGENT),"(None,)",Dindoli Surat,1000 ,2 ,"(None,)",21.15127563,72.87439728,2250000 ,Under Construction
Aashutosh real estate (AGENT),"(None,)",Dindoli Surat,962 ,2 ,"(None,)",21.15127563,72.87439728,2200000 ,Ready to move
Aashutosh real estate (AGENT),"(None,)",Dindoli Surat,962 ,2 ,"(None,)",21.15127563,72.87439728,2200000 ,Ready to move
PROPERTY PLANET (BUILDER),"(None,)",Dindoli Kharvasa Road Surat,1886 ,4 ,"(None,)",21.14056396,72.88384247,6900000 ,Ready to move
Balaji Properties (AGENT),"(None,)",Vesu Main Road Surat,1250 ,2 ,"(None,)",21.14583206,72.77292633,5100000 ,Under Construction
EXPRESS REALTY (AGENT),Hi Tech Avenues,Vesu Surat,2500 ,3 ,"(None,)",21.14171219,72.76018524,12000000 ,Ready to move
Balaji Properties (AGENT),"(None,)",City Light Road Surat,900 ,2 ,"(None,)",21.16671753,72.79551697,3700000 ,Ready to move
Disha Properties (AGENT),"(None,)",Adajan Surat,1125 ,2 ,"(None,)",21.19572449,72.7875824,3527000 ,Ready to move
Surat Realestate (AGENT),"(None,)",Dindoli Kharvasa Road Surat,912 ,3 ,"(None,)",21.14056396,72.88384247,4011000 ,Under Construction
Aashutosh real estate (AGENT),"(None,)",Dindoli Surat,1001 ,2 ,"(None,)",21.15127563,72.87439728,2453000 ,Ready to move
PROPERTY PLANET (BUILDER),"(None,)",Dindoli Kharvasa Road Surat,1433 ,3 ,"(None,)",21.14056396,72.88384247,3245000 ,Under Construction
new Project booking (BUILDER),"(None,)",Olpad Sayan Road Surat,648 ,2 ,"(None,)",21.32754707,72.82426453,1551000 ,Under Construction
PROPERTY PLANET (BUILDER),"(None,)",Dindoli Kharvasa Road Surat,1886 ,4 ,"(None,)",21.14056396,72.88384247,6900000 ,Ready to move
new Project booking (BUILDER),"(None,)",Olpad Sayan Road Surat,1008 ,3 ,"(None,)",21.32754707,72.82426453,1390000 ,Under Construction
new Project booking (BUILDER),"(None,)",Olpad Sayan Road Surat,504 ,1 ,"(None,)",21.32754707,72.82426453,999999 ,Under Construction
Harshesh Chopra (OWNER),"(None,)",Bhatar Surat,5760 ,4 ,"(None,)",21.16792297,72.81462097,40000000 ,Ready to move
Pramukh Estate (AGENT),"(None,)",Palanpur Surat,1328 ,2 ,"(None,)",21.21226501,72.77759552,4721000 ,Under Construction
harshdeep realtors (AGENT),Rajhans Elita,Pal Gam Surat,2395 ,3 ,"(None,)",21.18392181,72.78556824,17500000 ,Ready to move
Universal Property (AGENT),"(None,)",Palanpur Surat,1135 ,2 ,"(None,)",21.21226501,72.77759552,3400000 ,Ready to move
Aashutosh real estate (AGENT),"(None,)",Dindoli Surat,912 ,2 ,"(None,)",21.15127563,72.87439728,3475000 ,Under Construction
Disha Properties (AGENT),"(None,)",Adajan Surat,1242 ,2 ,"(None,)",21.19572449,72.7875824,4251000 ,Ready to move
Disha Properties (AGENT),Happy Home Nakshatra Nebula,Palanpur Surat,1738 ,3 ,"(None,)",21.22995567,72.79173279,5053000 ,Ready to move
EXPRESS REALTY (AGENT),"(None,)",Piplod Main Road Surat,4250 ,4 ,"(None,)",21.15813065,72.77851105,26000000 ,Ready to move
Disha Properties (AGENT),"(None,)",Adajan Surat,1675 ,3 ,"(None,)",21.19572449,72.7875824,4988000 ,Under Construction
Disha Properties (AGENT),"(None,)",Palanpur Surat,1275 ,2 ,"(None,)",21.21226501,72.77759552,3581000 ,Under Construction
Disha Properties (AGENT),"(None,)",Adajan Surat,1660 ,3 ,"(None,)",21.19572449,72.7875824,4735000 ,Under Construction
Disha Properties (AGENT),"(None,)",Adajan Surat,1276 ,2 ,"(None,)",21.19572449,72.7875824,3580250 ,Under Construction
Disha Properties (AGENT),"(None,)",Adajan Surat,1220 ,2 ,"(None,)",21.19572449,72.7875824,3416000 ,Under Construction
Disha Properties (AGENT),"(None,)",Adajan Surat,1250 ,2 ,"(None,)",21.19572449,72.7875824,3500000 ,Under Construction
Disha Properties (AGENT),"(None,)",Adajan Surat,1625 ,3 ,"(None,)",21.19572449,72.7875824,4631000 ,Under Construction
Disha Properties (AGENT),"(None,)",Adajan Surat,1215 ,2 ,"(None,)",21.19572449,72.7875824,3462750 ,Under Construction
Disha Properties (AGENT),"(None,)",Adajan Surat,1570 ,3 ,"(None,)",21.19572449,72.7875824,5645000 ,Under Construction
Disha Properties (AGENT),"(None,)",Adajan Surat,1625 ,3 ,"(None,)",21.19572449,72.7875824,4740000 ,Under Construction
Disha Properties (AGENT),"(None,)",Palanpur Surat,1620 ,3 ,"(None,)",21.21226501,72.77759552,4725000 ,Under Construction
Disha Properties (AGENT),"(None,)",Palanpur Surat,1275 ,2 ,"(None,)",21.21226501,72.77759552,3585000 ,Under Construction
Disha Properties (AGENT),"(None,)",Adajan Surat,1125 ,2 ,"(None,)",21.19572449,72.7875824,3498000 ,Ready to move
Disha Properties (AGENT),"(None,)",Adajan Surat,1255 ,2 ,"(None,)",21.19572449,72.7875824,3578000 ,Under Construction
Disha Properties (AGENT),"(None,)",Palanpur Surat,1275 ,2 ,"(None,)",21.21226501,72.77759552,3634000 ,Under Construction
Disha Properties (AGENT),"(None,)",Adajan Surat,1660 ,3 ,"(None,)",21.19572449,72.7875824,4814000 ,Under Construction
Disha Properties (AGENT),"(None,)",Adajan Surat,1715 ,3 ,"(None,)",21.19572449,72.7875824,4991500 ,Under Construction
Disha Properties (AGENT),"(None,)",Adajan Surat,1715 ,3 ,"(None,)",21.19572449,72.7875824,4973500 ,Under Construction
Disha Properties (AGENT),"(None,)",Adajan Surat,1300 ,2 ,"(None,)",21.19572449,72.7875824,3640000 ,Under Construction
Disha Properties (AGENT),"(None,)",Adajan Surat,1215 ,2 ,"(None,)",21.19572449,72.7875824,3402000 ,Under Construction
Disha Properties (AGENT),"(None,)",Adajan Surat,1610 ,3 ,"(None,)",21.19572449,72.7875824,4588500 ,Under Construction
Disha Properties (AGENT),"(None,)",Palanpur Surat,1625 ,3 ,"(None,)",21.21226501,72.77759552,4712250 ,Under Construction
Disha Properties (AGENT),"(None,)",Adajan Surat,1610 ,3 ,"(None,)",21.19572449,72.7875824,4588000 ,Under Construction
Disha Properties (AGENT),"(None,)",Adajan Surat,1250 ,2 ,"(None,)",21.19572449,72.7875824,3562500 ,Under Construction
PROPERTY PLANET (BUILDER),"(None,)",Dindoli Kharvasa Road Surat,978 ,2 ,"(None,)",21.14056396,72.88384247,2054000 ,Under Construction
Saanvi Group (AGENT),White Flamingo,Bhimrad Surat,1915 ,3 ,"(None,)",21.13102341,72.8011322,7000000 ,Ready to move
new Project booking (BUILDER),"(None,)",Jahangirabad Surat,667 ,1 ,"(None,)",21.21642685,72.78211975,1840000 ,Under Construction
Disha Properties (AGENT),"(None,)",Adajan Surat,1215 ,2 ,"(None,)",21.19572449,72.7875824,3411000 ,Under Construction
Earth Solution (AGENT),"(None,)",Olpad Surat,480 ,1 ,"(None,)",21.33589363,72.7501297,1251000 ,Under Construction
Disha Properties (AGENT),"(None,)",Adajan Surat,1125 ,2 ,"(None,)",21.19572449,72.7875824,3522000 ,Ready to move
Disha Properties (AGENT),"(None,)",Adajan Surat,1125 ,2 ,"(None,)",21.19572449,72.7875824,3526000 ,Ready to move
PROPERTY PLANET (BUILDER),"(None,)",Dindoli Kharvasa Road Surat,864 ,2 ,"(None,)",21.14056396,72.88384247,2351000 ,Under Construction
Disha Properties (AGENT),"(None,)",Adajan Surat,1285 ,2 ,"(None,)",21.19572449,72.7875824,3741000 ,Under Construction
Universal Property (AGENT),Santvan Skyon,Palanpur Surat,1173 ,2 ,"(None,)",21.21376801,72.77164459,4330000 ,Under Construction
Dastan Property (AGENT),"(None,)",LP Savani Road Surat,4500 ,3 ,"(None,)",21.19455147,72.78633118,13500000 ,Ready to move
HELLYS Real Estate Consultant (AGENT),Happy Home Nakshatra Nebula,Palanpur Surat,1738 ,3 ,"(None,)",21.22995567,72.79173279,5474700 ,Ready to move
BAVADIYA Co (AGENT), Sumeru Residency,Vesu Surat,1245 ,2 ,"(None,)",21.14325905,72.76717377,6500000 ,Ready to move
Disha Properties (AGENT),"(None,)",Adajan Surat,1725 ,3 ,"(None,)",21.19572449,72.7875824,5002500 ,Under Construction
Disha Properties (AGENT),"(None,)",Adajan Surat,1620 ,3 ,"(None,)",21.19572449,72.7875824,4641000 ,Under Construction
Disha Properties (AGENT),"(None,)",Adajan Surat,1620 ,3 ,"(None,)",21.19572449,72.7875824,4621000 ,Under Construction
BAVADIYA Co (AGENT),"(None,)",Vesu Surat,2550 ,4 ,"(None,)",21.00035095,72.86087036,13500000 ,Ready to move
Disha Properties (AGENT),"(None,)",Adajan Surat,1250 ,2 ,"(None,)",21.19572449,72.7875824,3511000 ,Under Construction
Disha Properties (AGENT),"(None,)",Adajan Surat,1715 ,3 ,"(None,)",21.19572449,72.7875824,4981200 ,Under Construction
Disha Properties (AGENT),"(None,)",Adajan Surat,1620 ,3 ,"(None,)",21.19572449,72.7875824,4641000 ,Under Construction
Disha Properties (AGENT),"(None,)",Palanpur Surat,1610 ,3 ,"(None,)",21.21226501,72.77759552,4588000 ,Under Construction
BAVADIYA Co (AGENT),"(None,)",Vesu Surat,2133 ,3 ,"(None,)",21.00035095,72.86087036,9100000 ,Ready to move
Disha Properties (AGENT),"(None,)",Adajan Surat,2581 ,4 ,"(None,)",21.19572449,72.7875824,11500000 ,Ready to move
BAVADIYA Co (AGENT),Ascon Surya Green View,Vesu Surat,3000 ,4 ,"(None,)",21.14498901,72.78469086,14500000 ,Ready to move
Disha Properties (AGENT),"(None,)",Adajan Surat,1215 ,2 ,"(None,)",21.19572449,72.7875824,3402000 ,Under Construction
Disha Properties (AGENT),"(None,)",Adajan Surat,1610 ,3 ,"(None,)",21.19572449,72.7875824,4588700 ,Under Construction
Universal Property (AGENT),"(None,)",Pal Surat,1196 ,2 ,"(None,)",21.19207191,72.77603912,3900000 ,Ready to move
Disha Properties (AGENT),"(None,)",Adajan Surat,1230 ,2 ,"(None,)",21.19572449,72.7875824,3444000 ,Under Construction
BAVADIYA Co (AGENT),"(None,)",Vesu Surat,2530 ,4 ,"(None,)",21.00035095,72.86087036,11500000 ,Ready to move
Disha Properties (AGENT),"(None,)",Adajan Surat,1275 ,2 ,"(None,)",21.19572449,72.7875824,3570000 ,Under Construction
Disha Properties (AGENT),"(None,)",Adajan Surat,1275 ,3 ,"(None,)",21.19572449,72.7875824,3575000 ,Under Construction
Disha Properties (AGENT),"(None,)",Adajan Surat,1300 ,2 ,"(None,)",21.19572449,72.7875824,3705000 ,Under Construction
Disha Properties (AGENT),"(None,)",Adajan Surat,1275 ,3 ,"(None,)",21.19572449,72.7875824,3575000 ,Under Construction
Aashutosh real estate (AGENT),"(None,)",Dindoli Kharvasa Road Surat,1000 ,2 ,"(None,)",21.14056396,72.88384247,3350000 ,Ready to move
Disha Properties (AGENT),"(None,)",Adajan Surat,1610 ,3 ,"(None,)",21.19572449,72.7875824,4588900 ,Under Construction
Disha Properties (AGENT),"(None,)",Palanpur Surat,1620 ,3 ,"(None,)",21.21226501,72.77759552,4619000 ,Under Construction
BAVADIYA Co (AGENT),Happy Happy Elenza,Vesu Surat,2878 ,4 ,"(None,)",21.15567589,72.76914215,14300000 ,Ready to move
Disha Properties (AGENT),"(None,)",Adajan Surat,1275 ,2 ,"(None,)",21.19572449,72.7875824,3635000 ,Under Construction
PROPERTY PLANET (BUILDER),"(None,)",Dindoli Surat,912 ,2 ,"(None,)",21.15127563,72.87439728,2700000 ,Under Construction
Disha Properties (AGENT),"(None,)",Adajan Surat,1715 ,3 ,"(None,)",21.19572449,72.7875824,4974000 ,Under Construction
Pramukh Estate (AGENT),"(None,)",Palanpur Surat,1185 ,2 ,"(None,)",21.21226501,72.77759552,4500000 ,Ready to move
PROPERTY PLANET (BUILDER),"(None,)",Dindoli Kharvasa Road Surat,936 ,2 ,"(None,)",21.14056396,72.88384247,3351000 ,Ready to move
Disha Properties (AGENT),"(None,)",Adajan Surat,1195 ,2 ,"(None,)",21.19572449,72.7875824,3406000 ,Under Construction
Disha Properties (AGENT),"(None,)",Adajan Surat,1725 ,3 ,"(None,)",21.19572449,72.7875824,5002500 ,Under Construction
Disha Properties (AGENT),"(None,)",Adajan Surat,1715 ,3 ,"(None,)",21.19572449,72.7875824,4974500 ,Under Construction
Disha Properties (AGENT),"(None,)",Adajan Surat,1725 ,3 ,"(None,)",21.19572449,72.7875824,5003000 ,Under Construction
Disha Properties (AGENT),"(None,)",Adajan Surat,1275 ,2 ,"(None,)",21.19572449,72.7875824,3570000 ,Under Construction
Disha Properties (AGENT),"(None,)",Palanpur Surat,1625 ,3 ,"(None,)",21.21226501,72.77759552,4631000 ,Under Construction
Disha Properties (AGENT),"(None,)",Adajan Surat,1285 ,2 ,"(None,)",21.19572449,72.7875824,3663000 ,Under Construction
Disha Properties (AGENT),"(None,)",Adajan Surat,1660 ,3 ,"(None,)",21.19572449,72.7875824,4814000 ,Under Construction
Disha Properties (AGENT),"(None,)",Adajan Surat,1230 ,2 ,"(None,)",21.19572449,72.7875824,3444000 ,Under Construction
Disha Properties (AGENT),"(None,)",Adajan Surat,1660 ,3 ,"(None,)",21.19572449,72.7875824,4814000 ,Under Construction
BAVADIYA Co (AGENT),"(None,)",Vesu Surat,3285 ,4 ,"(None,)",21.00035095,72.86087036,12200000 ,Ready to move
Disha Properties (AGENT),"(None,)",Adajan Surat,1609 ,3 ,"(None,)",21.19572449,72.7875824,4724000 ,Ready to move
BAVADIYA Co (AGENT),S U Crimson Palace,Althan Surat,3520 ,4 ,"(None,)",21.15561295,72.80639648,14900000 ,Ready to move
Disha Properties (AGENT),"(None,)",Adajan Surat,1650 ,3 ,"(None,)",21.19572449,72.7875824,4785000 ,Under Construction
Disha Properties (AGENT),"(None,)",Adajan Surat,1620 ,3 ,"(None,)",21.19572449,72.7875824,4617000 ,Under Construction
Disha Properties (AGENT),"(None,)",Adajan Surat,2581 ,4 ,"(None,)",21.19572449,72.7875824,11400000 ,Ready to move
PROPERTY PLANET (BUILDER),"(None,)",Dindoli Surat,735 ,1 ,"(None,)",21.15127563,72.87439728,1590000 ,Under Construction
BAVADIYA Co (AGENT),"(None,)",Pal Surat,1110 ,4 ,"(None,)",21.19207191,72.77603912,21100000 ,Ready to move
Disha Properties (AGENT),"(None,)",Adajan Surat,1250 ,2 ,"(None,)",21.19572449,72.7875824,3514000 ,Under Construction
Disha Properties (AGENT),"(None,)",Palanpur Surat,1620 ,3 ,"(None,)",21.21226501,72.77759552,4545000 ,Under Construction
BAVADIYA Co (AGENT),"(None,)",Vesu Surat,2550 ,4 ,"(None,)",21.00035095,72.86087036,11500000 ,Ready to move
Pramukh Estate (AGENT),Narayan Coral Heights,Palanpur Surat,1242 ,2 ,"(None,)",21.21112633,72.77029419,4400000 ,Ready to move
Surat Realestate (AGENT),"(None,)",Dindoli Kharvasa Road Surat,912 ,2 ,"(None,)",21.14056396,72.88384247,3290000 ,Ready to move
Geeta Real Estate Surat (AGENT),"(None,)",Althan Surat,1173 ,2 ,"(None,)",21.14689064,72.80265045,4700000 ,Under Construction
Disha Properties (AGENT),"(None,)",Adajan Surat,1650 ,3 ,"(None,)",21.19572449,72.7875824,4785000 ,Under Construction
Aashutosh real estate (AGENT),"(None,)",Dindoli Kharvasa Road Surat,912 ,2 ,"(None,)",21.14056396,72.88384247,3251000 ,Under Construction
Disha Properties (AGENT),"(None,)",Palanpur Surat,1230 ,2 ,"(None,)",21.21226501,72.77759552,3505500 ,Under Construction
Disha Properties (AGENT),"(None,)",Adajan Surat,1738 ,3 ,"(None,)",21.19572449,72.7875824,5061000 ,Ready to move
Disha Properties (AGENT),"(None,)",Adajan Surat,1215 ,2 ,"(None,)",21.19572449,72.7875824,3416000 ,Under Construction
